;HEADER
;Start_gcode
G21                     ; Set to metric [change to G20 if you want Imperial]
G90                     ; Force coordinates to be absolute relative to the origin
G28                     ; Home X/Y/Z axis
M117 Printing...
;ENDHEADER
;Layer # 
G0 X30.00 Y750.00 Z90.00 F5000 
M400
M280 P1 S0
G1 X30.00 Y750.00 Z62 F3000 
G1 X30.00 Y30.00 Z62 F3000 
G1 X50.00 Y30.00 Z62 F3000 
G1 X50.00 Y750.00 Z62 F3000 
G1 X70.00 Y750.00 Z62 F3000 
G1 X70.00 Y30.00 Z62 F3000 
G1 X90.00 Y30.00 Z62 F3000 
G1 X90.00 Y750.00 Z62 F3000 
G1 X110.00 Y750.00 Z62 F3000 
G1 X110.00 Y30.00 Z62 F3000 
G1 X130.00 Y30.00 Z62 F3000 
G1 X130.00 Y750.00 Z62 F3000 
G1 X150.00 Y750.00 Z62 F3000 
G1 X150.00 Y30.00 Z62 F3000 
G1 X170.00 Y30.00 Z62 F3000 
G1 X170.00 Y750.00 Z62 F3000 
G1 X190.00 Y750.00 Z62 F3000 
G1 X190.00 Y30.00 Z62 F3000 
G1 X210.00 Y30.00 Z62 F3000 
G1 X210.00 Y750.00 Z62 F3000 
G1 X230.00 Y750.00 Z62 F3000 
G1 X230.00 Y30.00 Z62 F3000 
G1 X250.00 Y30.00 Z62 F3000 
G1 X250.00 Y750.00 Z62 F3000 
G1 X270.00 Y750.00 Z62 F3000 
G1 X270.00 Y30.00 Z62 F3000 
G1 X290.00 Y30.00 Z62 F3000 
G1 X290.00 Y750.00 Z62 F3000 
G1 X310.00 Y750.00 Z62 F3000 
G1 X310.00 Y30.00 Z62 F3000 
G1 X330.00 Y30.00 Z62 F3000 
G1 X330.00 Y750.00 Z62 F3000 
G1 X350.00 Y750.00 Z62 F3000 
G1 X350.00 Y30.00 Z62 F3000 
G1 X370.00 Y30.00 Z62 F3000 
G1 X370.00 Y750.00 Z62 F3000 
G1 X390.00 Y750.00 Z62 F3000 
G1 X390.00 Y30.00 Z62 F3000 
G1 X410.00 Y30.00 Z62 F3000 
G1 X410.00 Y750.00 Z62 F3000 
G1 X430.00 Y750.00 Z62 F3000 
G1 X430.00 Y30.00 Z62 F3000 
G1 X450.00 Y30.00 Z62 F3000 
G1 X450.00 Y750.00 Z62 F3000 
G1 X470.00 Y750.00 Z62 F3000 
G1 X470.00 Y30.00 Z62 F3000 
G1 X490.00 Y30.00 Z62 F3000 
G1 X490.00 Y750.00 Z62 F3000 
G1 X510.00 Y750.00 Z62 F3000 
G1 X510.00 Y30.00 Z62 F3000 
G1 X530.00 Y30.00 Z62 F3000 
G1 X530.00 Y750.00 Z62 F3000 
G1 X550.00 Y750.00 Z62 F3000 
G1 X550.00 Y30.00 Z62 F3000 
G1 X570.00 Y30.00 Z62 F3000 
G1 X570.00 Y750.00 Z62 F3000 
G1 X590.00 Y750.00 Z62 F3000 
G1 X590.00 Y30.00 Z62 F3000 
G1 X610.00 Y30.00 Z62 F3000 
G1 X610.00 Y750.00 Z62 F3000 
G1 X630.00 Y750.00 Z62 F3000 
G1 X630.00 Y30.00 Z62 F3000 
G1 X650.00 Y30.00 Z62 F3000 
G1 X650.00 Y750.00 Z62 F3000 
G1 X670.00 Y750.00 Z62 F3000 
G1 X670.00 Y30.00 Z62 F3000 
G1 X690.00 Y30.00 Z62 F3000 
G1 X690.00 Y750.00 Z62 F3000 
G1 X710.00 Y750.00 Z62 F3000 
G1 X710.00 Y30.00 Z62 F3000 
G1 X730.00 Y30.00 Z62 F3000 
G1 X730.00 Y750.00 Z62 F3000 
G0 X730.00 Y750.00 Z90.00 F5000 
M400
M280 P1 S90
;FOOTER
; end_gcode
G28 X Y
G0 Z100 				; HOME
G90                             ; absolute positioning
;ENDFOOTER
