<?xml version="1.0" encoding="utf-8"?>
<!-- Generator: Adobe Illustrator 22.0.0, SVG Export Plug-In . SVG Version: 6.00 Build 0)  -->
<svg version="1.1" id="Layer_1" xmlns="http://www.w3.org/2000/svg" xmlns:xlink="http://www.w3.org/1999/xlink" x="0px" y="0px"
	 viewBox="0 0 1984.3 1984.3" style="enable-background:new 0 0 1984.3 1984.3;" xml:space="preserve">
<style type="text/css">
	.st0{fill:#19203B;}
</style>
<path class="st0" d="M1635,975.4c-42.2-42.5-79.3-90.4-121.4-131.2c-10.2-10.3-21.2-19.9-31.8-29.2c-11.2-9-21.9-17.7-33.5-25.3
	c-22.6-15.5-46.6-27.5-70.8-35.1c-19.9-6.2-40.3-9.2-60.1-8.3c-10,0.5-19.7,1.9-29.2,4.2c-9.6,2.4-19,5.9-28.1,10.3
	c-36,17.6-64.6,48-92.1,77.1c-3-3.7-6.5-6.8-9.7-10.4c-3.6-3.1-6.7-6.7-10.4-9.7c29.1-27.5,59.5-56.1,77.1-92.1
	c4.4-9.1,7.8-18.5,10.3-28.1c2.3-9.5,3.7-19.2,4.2-29.2c0.9-19.8-2.1-40.1-8.3-60.1c-7.6-24.2-19.6-48.2-35.1-70.8
	c-7.6-11.6-16.3-22.3-25.3-33.5c-9.2-10.6-18.9-21.6-29.2-31.8c-40.8-42-88.7-79.1-131.2-121.4c-4.6-4.6-11.2-6.9-17.8-7
	c-6.6,0.1-13.2,2.5-17.8,7c-42.5,42.2-90.4,79.3-131.2,121.4c-10.3,10.2-19.9,21.2-29.2,31.8c-9,11.2-17.7,21.9-25.3,33.5
	c-15.5,22.6-27.5,46.6-35.1,70.8c-6.2,19.9-9.2,40.3-8.3,60.1c0.5,10,1.9,19.7,4.2,29.2c2.4,9.6,5.9,19,10.3,28.1
	c17.6,36,48,64.6,77.1,92.1c-3.7,3-6.8,6.5-10.4,9.7c-3.1,3.6-6.7,6.7-9.7,10.4c-27.5-29.1-56.1-59.5-92.1-77.1
	c-9.1-4.4-18.5-7.8-28.1-10.3c-9.5-2.3-19.2-3.7-29.2-4.2c-19.8-0.9-40.1,2.1-60.1,8.3c-24.2,7.6-48.2,19.6-70.8,35.1
	c-11.6,7.6-22.3,16.3-33.5,25.3c-10.6,9.2-21.6,18.9-31.8,29.2c-42,40.8-79.1,88.7-121.4,131.2c-4.6,4.6-6.9,11.2-7,17.8
	c0.1,6.6,2.5,13.2,7,17.8c42.2,42.5,79.3,90.4,121.4,131.2c10.2,10.3,21.2,19.9,31.8,29.2c11.2,9,21.9,17.7,33.5,25.3
	c22.6,15.5,46.6,27.5,70.8,35.1c19.9,6.2,40.3,9.2,60.1,8.3c10-0.5,19.7-1.9,29.2-4.2c9.6-2.4,19-5.9,28.1-10.3
	c36-17.6,64.6-48,92.1-77.1c3,3.7,6.5,6.8,9.7,10.4c3.6,3.1,6.7,6.7,10.4,9.7c-29.1,27.5-59.5,56.1-77.1,92.1
	c-4.4,9.1-7.8,18.5-10.3,28.1c-2.3,9.5-3.7,19.2-4.2,29.2c-0.9,19.8,2.1,40.1,8.3,60.1c7.6,24.2,19.6,48.2,35.1,70.8
	c7.6,11.6,16.3,22.3,25.3,33.5c9.2,10.6,18.9,21.6,29.2,31.8c40.8,42,88.7,79.1,131.2,121.4c4.6,4.6,11.2,6.9,17.8,7
	c6.6-0.1,13.2-2.5,17.8-7c42.5-42.2,90.4-79.3,131.2-121.4c10.3-10.2,19.9-21.2,29.2-31.8c9-11.2,17.7-21.9,25.3-33.5
	c15.5-22.6,27.5-46.6,35.1-70.8c6.2-19.9,9.2-40.3,8.3-60.1c-0.5-10-1.9-19.7-4.2-29.2c-2.4-9.6-5.9-19-10.3-28.1
	c-17.6-36-48-64.6-77.1-92.1c3.7-3,6.8-6.5,10.4-9.7c3.1-3.6,6.7-6.7,9.7-10.4c27.5,29.1,56.1,59.5,92.1,77.1
	c9.1,4.4,18.5,7.8,28.1,10.3c9.5,2.3,19.2,3.7,29.2,4.2c19.8,0.9,40.1-2.1,60.1-8.3c24.2-7.6,48.2-19.6,70.8-35.1
	c11.6-7.6,22.3-16.3,33.5-25.3c10.6-9.2,21.6-18.9,31.8-29.2c42-40.8,79.1-88.7,121.4-131.2c4.6-4.6,6.9-11.2,7-17.8
	C1641.9,986.6,1639.5,979.9,1635,975.4z M1189.3,855.3c13.8-16.6,28.8-31.5,45.3-43.2c-11.3,39.3-18.2,71.3-22.5,99.1
	c-7.1-18.2-15.8-35.8-27.3-51.8C1186.5,858.3,1188,857,1189.3,855.3z M1234.1,993.2c-0.4-10.5,0.2-21.2,0.3-31.9
	c20.2-4.3,36.2-2.8,47.2,3.6c5.4,3.2,9.6,7.4,12.6,12.3c2.7,4.9,4.1,10.4,4.3,15.9c-0.2,5.5-1.6,11-4.3,15.9
	c-3,4.9-7.2,9.1-12.6,12.3c-11.1,6.4-27,8-47.2,3.6C1234.3,1014.3,1233.7,1003.7,1234.1,993.2z M1130.3,796.4
	c-1.6,1.4-3,2.9-4.1,4.4c-16-11.5-33.7-20.2-51.8-27.3c27.8-4.3,59.8-11.1,99.1-22.5C1161.9,767.6,1147,782.6,1130.3,796.4z
	 M1036.7,687.1c-8.1-17.2-24.1-28.9-44.2-29.1c-20.1,0.2-36.1,11.9-44.2,29.1c-8.3,17.4-8.8,40-3.7,63.4c-5.5-0.3-11-0.6-16.6-1.2
	c-5.6-0.3-11.4-1.3-17.2-1.7c-3.3-16.3-4.4-32.5-2.7-47.6c0.8-7.6,2.2-15.2,4.4-22.2c2.2-7,5.1-13.7,8.6-20.1
	c14.1-25,40.4-42.5,71.4-42.8c31-0.3,57.4,17.3,71.5,42.7c3.5,6.4,6.4,13.2,8.6,20.3c2.2,7.1,3.6,14.8,4.4,22.4
	c1.6,15.2,0.5,31.4-2.7,47.5c-5.8,0.5-11.6,1.5-17.2,1.7c-5.7,0.6-11.2,0.9-16.6,1.2C1045.5,727.1,1045,704.5,1036.7,687.1z
	 M1024.4,751.3c-10.7,0.1-21.3,0.7-31.9,0.3c-10.5,0.4-21.2-0.2-31.9-0.3c-4.3-20.2-2.8-36.2,3.6-47.2c3.2-5.4,7.4-9.6,12.3-12.6
	c4.9-2.7,10.4-4.1,15.9-4.3c5.5,0.2,11,1.6,15.9,4.3c4.9,3,9.1,7.2,12.3,12.6C1027.1,715.1,1028.7,731.1,1024.4,751.3z M892.6,745.1
	c-11.6-1.9-23.6-4-36.5-7c-6.7-22.5-9.7-45.8-7.4-67.8c2.1-22.3,9.4-43.5,21.6-62.5c12.3-18.5,29.5-35.2,50.6-46.3
	c21-11.3,45.7-17.8,71.5-17.9c25.8,0.1,50.5,6.6,71.5,17.9c21.1,11.1,38.3,27.7,50.6,46.3c12.2,19,19.5,40.2,21.6,62.5
	c2.3,22.1-0.7,45.3-7.4,67.8c-12.9,3-24.9,5.1-36.5,7c4.8-18.6,7-37.8,5.4-55.7c-0.8-9-2.4-18.1-5-26.5c-2.6-8.3-6.1-16.6-10.6-24.2
	c-8.9-15-21.5-28.2-36.9-37.2c-3.9-2.2-7.9-4.3-12-6.2c-4.2-1.7-8.5-3.1-12.9-4.4c-8.8-2.8-18.2-3.5-27.8-3.9
	c-9.5,0.4-18.9,1.1-27.7,3.9c-4.4,1.3-8.8,2.7-12.9,4.4c-4.2,1.9-8.2,4-12,6.2c-15.5,9-28,22.2-36.9,37.2
	c-4.4,7.6-7.9,15.9-10.6,24.2c-2.6,8.4-4.2,17.5-5,26.5C885.6,707.2,887.8,726.5,892.6,745.1z M784.6,685.4
	c-1.9-12.4-2.3-25.3-1.3-38.4c2.3-25.6,10.7-52.2,23.6-74.9c19.6-35.3,48.5-67.6,81.2-97.1c32.7-29.7,69.2-57,104.3-86.7
	c35.1,29.7,71.6,57,104.4,86.7c32.8,29.5,61.6,61.7,81.2,97.1c12.9,22.7,21.3,49.3,23.6,74.9c1,13.1,0.6,26-1.2,38.3
	c-2,12.6-5.5,24.7-10.4,36.2c-6.9,2.3-13.5,4.2-20,6.1c-6.6,2-12.9,3.7-19,5.2c7.8-24.4,11.3-49.8,8.7-74.3
	c-1.1-12.5-4-24.2-8.1-36.2c-2-6-4.6-11.5-7.4-17.2c-2.8-5.6-6-11.3-9.6-16.4c-14.1-21.4-34.4-39.4-59-52.4
	c-24.5-12.9-53.3-20.4-83.2-20.4c-29.9,0-58.8,7.5-83.2,20.4c-24.5,13-44.8,31-59,52.4c-3.6,5.1-6.8,10.8-9.6,16.4
	c-2.8,5.7-5.4,11.2-7.4,17.2c-4.1,12-7,23.7-8.1,36.2c-2.6,24.5,0.9,49.9,8.7,74.3c-6.1-1.5-12.4-3.2-18.9-5.2
	c-6.5-1.9-13.1-3.8-20-6.1C790.1,710.1,786.6,698,784.6,685.4z M811.5,751c39.3,11.3,71.3,18.2,99.1,22.5
	c-18.2,7.1-35.8,15.8-51.8,27.3c-1.1-1.6-2.5-3.1-4.1-4.4C838,782.6,823.1,767.6,811.5,751z M795.7,855.3c1.4,1.6,2.9,3,4.4,4.1
	c-11.5,16-20.2,33.7-27.3,51.8c-4.3-27.8-11.1-59.8-22.5-99.1C766.9,823.8,781.9,838.7,795.7,855.3z M750.6,1025
	c-20.2,4.3-36.2,2.8-47.2-3.6c-5.4-3.2-9.6-7.4-12.6-12.3c-2.7-4.9-4.1-10.4-4.3-15.9c0.2-5.5,1.6-11,4.3-15.9
	c3-4.9,7.2-9.1,12.6-12.3c11.1-6.4,27-8,47.2-3.6c0.1,10.7,0.7,21.3,0.3,31.9C751.3,1003.7,750.7,1014.3,750.6,1025z M726.9,1170.7
	c-1.9,6.5-3.8,13.1-6.1,20c-11.5,4.9-23.5,8.4-36.2,10.4c-12.4,1.9-25.3,2.3-38.4,1.3c-25.6-2.3-52.2-10.7-74.9-23.6
	c-35.3-19.6-67.6-48.5-97.1-81.3c-29.7-32.7-57-69.2-86.7-104.3c29.7-35.1,57-71.6,86.7-104.4c29.5-32.8,61.8-61.6,97.1-81.2
	c22.7-12.9,49.3-21.3,74.9-23.6c13.1-1,26-0.6,38.3,1.2c12.6,2,24.7,5.5,36.2,10.4c2.3,6.9,4.2,13.5,6.1,20c2,6.6,3.7,12.9,5.2,19
	c-24.4-7.8-49.8-11.3-74.3-8.7c-12.5,1.1-24.3,4-36.2,8.1c-6,2-11.5,4.6-17.2,7.4c-5.6,2.8-11.3,6-16.4,9.6
	c-21.4,14.1-39.4,34.4-52.4,59c-12.9,24.5-20.4,53.3-20.4,83.2c0,29.9,7.5,58.8,20.4,83.2c13,24.5,31,44.8,52.4,59
	c5.1,3.6,10.8,6.8,16.4,9.6c5.7,2.8,11.2,5.4,17.2,7.4c12,4.1,23.7,7,36.2,8.1c24.5,2.6,49.9-0.9,74.3-8.7
	C730.6,1157.8,728.9,1164.2,726.9,1170.7z M737.4,1129.5c-22.5,6.7-45.8,9.7-67.8,7.4c-22.3-2.1-43.5-9.4-62.5-21.6
	c-18.5-12.3-35.2-29.5-46.3-50.6c-11.3-21-17.8-45.7-17.9-71.5c0.1-25.8,6.6-50.5,17.9-71.5c11.1-21.1,27.7-38.3,46.3-50.6
	c19-12.2,40.2-19.5,62.5-21.6c22.1-2.3,45.3,0.7,67.8,7.4c3,12.9,5.1,24.9,7,36.5c-18.6-4.8-37.8-7-55.7-5.4c-9,0.8-18.1,2.4-26.5,5
	c-8.3,2.6-16.6,6.1-24.2,10.6c-15,8.9-28.2,21.5-37.2,36.9c-2.2,3.9-4.3,7.9-6.2,12c-1.7,4.2-3.1,8.5-4.4,12.9
	c-2.8,8.8-3.5,18.2-3.9,27.8c0.4,9.5,1.1,18.9,3.9,27.7c1.3,4.4,2.7,8.8,4.4,12.9c1.9,4.2,4,8.2,6.2,12c9,15.5,22.2,28,37.2,36.9
	c7.6,4.4,15.9,7.9,24.2,10.6c8.4,2.6,17.5,4.2,26.5,5c17.9,1.6,37.1-0.6,55.7-5.4C742.5,1104.6,740.4,1116.6,737.4,1129.5z
	 M748.6,1057.7c-0.3,5.6-1.3,11.4-1.7,17.2c-16.3,3.3-32.5,4.4-47.6,2.7c-7.6-0.8-15.2-2.2-22.2-4.4c-7-2.2-13.7-5.1-20.1-8.6
	c-25-14.1-42.5-40.4-42.8-71.4c-0.3-31,17.3-57.4,42.7-71.5c6.4-3.5,13.2-6.4,20.3-8.6c7.1-2.2,14.8-3.6,22.4-4.4
	c15.2-1.6,31.4-0.5,47.5,2.7c0.5,5.8,1.5,11.6,1.7,17.2c0.6,5.7,0.9,11.2,1.2,16.6c-23.4-5.1-46-4.5-63.4,3.7
	c-17.2,8.1-28.9,24.1-29.1,44.2c0.2,20.1,11.9,36.1,29.1,44.2c17.4,8.3,40,8.8,63.4,3.7C749.5,1046.6,749.2,1052.1,748.6,1057.7z
	 M795.7,1131c-13.8,16.6-28.8,31.5-45.3,43.1c11.3-39.3,18.2-71.3,22.5-99.1c7.1,18.2,15.8,35.8,27.3,51.8
	C798.5,1128,797,1129.4,795.7,1131z M854.6,1190c1.6-1.4,3-2.9,4.1-4.4c16,11.5,33.7,20.2,51.8,27.3c-27.8,4.3-59.8,11.1-99.1,22.5
	C823.1,1218.8,838,1203.8,854.6,1190z M948.3,1299.2c8.1,17.2,24.1,28.9,44.2,29.1c20.1-0.2,36.1-11.9,44.2-29.1
	c8.3-17.4,8.8-40,3.7-63.4c5.5,0.3,11,0.6,16.6,1.2c5.6,0.3,11.4,1.3,17.2,1.7c3.3,16.3,4.4,32.5,2.7,47.6
	c-0.8,7.6-2.2,15.2-4.4,22.2c-2.2,7-5.1,13.7-8.6,20.1c-14.1,25-40.4,42.5-71.4,42.8c-31,0.3-57.4-17.3-71.5-42.7
	c-3.5-6.4-6.4-13.2-8.6-20.3c-2.2-7.1-3.6-14.8-4.4-22.4c-1.6-15.2-0.5-31.4,2.7-47.5c5.8-0.5,11.6-1.5,17.2-1.7
	c5.7-0.6,11.2-0.9,16.6-1.2C939.4,1259.2,940,1281.8,948.3,1299.2z M960.6,1235.1c10.7-0.1,21.3-0.7,31.9-0.3
	c10.5-0.4,21.2,0.2,31.9,0.3c4.3,20.2,2.8,36.2-3.6,47.2c-3.2,5.4-7.4,9.6-12.3,12.6c-4.9,2.7-10.4,4.1-15.9,4.3
	c-5.5-0.2-11-1.6-15.9-4.3c-4.9-3-9.1-7.2-12.3-12.6C957.9,1271.2,956.3,1255.3,960.6,1235.1z M1092.4,1241.3
	c11.6,1.9,23.6,4,36.5,7c6.7,22.5,9.7,45.8,7.4,67.8c-2.1,22.3-9.4,43.5-21.6,62.5c-12.3,18.5-29.5,35.2-50.6,46.3
	c-21,11.3-45.7,17.8-71.5,17.9c-25.8-0.1-50.5-6.6-71.5-17.9c-21.1-11.1-38.3-27.7-50.6-46.3c-12.2-19-19.5-40.2-21.6-62.5
	c-2.3-22.1,0.7-45.3,7.4-67.8c12.9-3,24.9-5.1,36.5-7c-4.8,18.6-7,37.8-5.4,55.7c0.8,9,2.4,18.1,5,26.5c2.6,8.3,6.1,16.6,10.6,24.2
	c8.9,15,21.5,28.2,36.9,37.2c3.9,2.2,7.9,4.3,12,6.2c4.2,1.7,8.5,3.1,12.9,4.4c8.8,2.8,18.2,3.5,27.8,3.9c9.5-0.4,18.9-1.1,27.7-3.9
	c4.4-1.3,8.8-2.7,12.9-4.4c4.2-1.9,8.2-4,12-6.2c15.5-9,28-22.2,36.9-37.2c4.4-7.6,7.9-15.9,10.6-24.2c2.6-8.4,4.2-17.5,5-26.5
	C1099.4,1279.1,1097.2,1259.9,1092.4,1241.3z M1200.4,1301c1.9,12.4,2.3,25.3,1.3,38.4c-2.3,25.6-10.7,52.2-23.6,74.9
	c-19.6,35.3-48.5,67.6-81.2,97.1c-32.7,29.7-69.2,57-104.3,86.7c-35.1-29.7-71.6-57-104.4-86.7c-32.8-29.5-61.6-61.7-81.2-97.1
	c-12.9-22.7-21.3-49.3-23.6-74.9c-1-13.1-0.6-26,1.2-38.3c2-12.6,5.5-24.7,10.4-36.2c6.9-2.3,13.5-4.2,20-6.1c6.6-2,12.9-3.7,19-5.2
	c-7.8,24.4-11.3,49.8-8.7,74.3c1.1,12.5,4,24.2,8.1,36.2c2,6,4.6,11.5,7.4,17.2c2.8,5.6,6,11.3,9.6,16.4
	c14.1,21.4,34.4,39.4,59,52.4c24.5,12.9,53.3,20.4,83.2,20.4c29.9,0,58.8-7.5,83.2-20.4c24.5-13,44.8-31,59-52.4
	c3.6-5.1,6.8-10.8,9.6-16.4c2.8-5.7,5.4-11.2,7.4-17.2c4.1-12,7-23.7,8.1-36.2c2.6-24.5-0.9-49.9-8.7-74.3
	c6.1,1.5,12.4,3.2,18.9,5.2c6.5,1.9,13.1,3.8,20,6.1C1194.9,1276.3,1198.4,1288.4,1200.4,1301z M1173.5,1235.3
	c-39.3-11.3-71.3-18.2-99.1-22.5c18.2-7.1,35.8-15.8,51.8-27.3c1.1,1.6,2.5,3.1,4.1,4.4C1147,1203.8,1161.9,1218.8,1173.5,1235.3z
	 M1138.6,1139.3c-19.3,19.3-42.3,34.6-67.1,44.9c-24.8,10.3-51.4,15.6-79,15.6c-27.6-0.1-54.2-5.4-79-15.6
	c-24.8-10.3-47.8-25.6-67.1-44.9c-19.3-19.3-34.6-42.3-44.9-67.1c-10.3-24.8-15.6-51.4-15.6-79c0.1-27.6,5.4-54.2,15.6-79
	c10.3-24.8,25.6-47.8,44.9-67.1c19.3-19.3,42.3-34.6,67.1-44.9c24.8-10.3,51.4-15.6,79-15.6c27.6,0.1,54.2,5.4,79,15.6
	c24.8,10.3,47.8,25.6,67.1,44.9c19.3,19.3,34.6,42.3,44.9,67.1c10.3,24.8,15.6,51.4,15.6,79c-0.1,27.6-5.4,54.2-15.6,79
	C1173.2,1097,1157.8,1120,1138.6,1139.3z M1189.3,1131c-1.4-1.6-2.9-3-4.4-4.1c11.5-16,20.2-33.7,27.3-51.8
	c4.3,27.8,11.1,59.8,22.5,99.1C1218.1,1162.6,1203.1,1147.7,1189.3,1131z M1236.4,1057.7c-0.6-5.7-0.9-11.2-1.2-16.6
	c23.4,5.1,46,4.5,63.4-3.7c17.2-8.1,28.9-24.1,29.1-44.2c-0.2-20.1-11.9-36.1-29.1-44.2c-17.4-8.3-40-8.8-63.4-3.7
	c0.3-5.5,0.6-11,1.2-16.6c0.3-5.6,1.3-11.4,1.7-17.2c16.3-3.3,32.5-4.4,47.6-2.7c7.6,0.8,15.2,2.2,22.2,4.4c7,2.2,13.7,5.1,20.1,8.6
	c25,14.1,42.5,40.4,42.8,71.4c0.3,31-17.3,57.4-42.7,71.5c-6.4,3.5-13.2,6.4-20.3,8.6c-7.1,2.2-14.8,3.6-22.4,4.4
	c-15.2,1.6-31.4,0.5-47.5-2.7C1237.6,1069.2,1236.6,1063.3,1236.4,1057.7z M1240.6,1093.1c18.6,4.8,37.8,7,55.7,5.4
	c9-0.8,18.1-2.4,26.5-5c8.3-2.6,16.6-6.1,24.2-10.6c15-8.9,28.2-21.5,37.2-36.9c2.2-3.9,4.3-7.9,6.2-12c1.7-4.2,3.1-8.5,4.4-12.9
	c2.8-8.8,3.5-18.2,3.9-27.8c-0.4-9.5-1.1-18.9-3.9-27.7c-1.3-4.4-2.7-8.8-4.4-12.9c-1.9-4.2-4-8.2-6.2-12c-9-15.5-22.2-28-37.2-36.9
	c-7.6-4.4-15.9-7.9-24.2-10.6c-8.4-2.6-17.5-4.2-26.5-5c-17.9-1.6-37.1,0.6-55.7,5.4c1.9-11.6,4-23.6,7-36.5
	c22.5-6.7,45.8-9.7,67.8-7.4c22.3,2.1,43.5,9.4,62.5,21.6c18.5,12.3,35.2,29.5,46.3,50.6c11.3,21,17.8,45.7,17.9,71.5
	c-0.1,25.8-6.6,50.5-17.9,71.5c-11.1,21.1-27.7,38.3-46.3,50.6c-19,12.2-40.2,19.5-62.5,21.6c-22.1,2.3-45.3-0.7-67.8-7.4
	C1244.6,1116.6,1242.5,1104.6,1240.6,1093.1z M1510.6,1097.5c-29.5,32.8-61.8,61.6-97.1,81.2c-22.7,12.9-49.3,21.3-74.9,23.6
	c-13.1,1-26,0.6-38.3-1.2c-12.6-2-24.7-5.5-36.2-10.4c-2.3-6.9-4.2-13.5-6.1-20c-2-6.6-3.7-12.9-5.2-19c24.4,7.8,49.8,11.3,74.3,8.7
	c12.5-1.1,24.3-4,36.2-8.1c6-2,11.5-4.6,17.2-7.4c5.6-2.8,11.3-6,16.4-9.6c21.4-14.1,39.4-34.4,52.4-59
	c12.9-24.5,20.4-53.3,20.4-83.2c0-29.9-7.5-58.8-20.4-83.2c-13-24.5-31-44.8-52.4-59c-5.1-3.6-10.8-6.8-16.4-9.6
	c-5.7-2.8-11.2-5.4-17.2-7.4c-12-4.1-23.7-7-36.2-8.1c-24.5-2.6-49.9,0.9-74.3,8.7c1.5-6.1,3.2-12.4,5.2-18.9
	c1.9-6.5,3.8-13.1,6.1-20c11.5-4.9,23.5-8.4,36.2-10.4c12.4-1.9,25.3-2.3,38.4-1.3c25.6,2.3,52.2,10.7,74.9,23.6
	c35.3,19.6,67.6,48.5,97.1,81.3c29.7,32.7,57,69.2,86.7,104.3C1567.6,1028.3,1540.3,1064.8,1510.6,1097.5z"/>
</svg>
