%
(Header)
(Generated by gcodetools from Inkscape.)
(Using default header. To add your own header create file "header" in the output dir.)
M3
(Header end.)
G21 (All units in mm)

(Start cutting path id: path61)
(Change tool to Default tool)

G00 Z40.000000
G00 X580.664718 Y433.621256

G01 Z10 F2500.0(Penetrate)
G03 X554.357777 Y405.706468 Z10 I335.470562 J-342.501244 F2500
G02 X528.342920 Y378.627468 Z10 I-285.653826 J248.392517
G02 X521.510884 Y372.310740 Z10 I-108.196531 J110.169968
G02 X514.637503 Y366.387995 Z10 I-613.948471 J705.541208
G02 X507.423948 Y360.822796 Z10 I-448.325471 J573.657215
G02 X500.199465 Y355.783249 Z10 I-63.905080 J83.913522
G02 X484.930161 Y347.048548 Z10 I-71.162023 J106.686110
G02 X469.685570 Y341.070720 Z10 I-46.227683 J95.462107
G02 X456.561897 Y338.190643 Z10 I-24.943247 J82.318703
G02 X443.783243 Y337.591710 Z10 I-9.670570 J69.708154
G02 X437.370173 Y338.195707 Z10 I3.453190 J71.013144
G02 X431.198418 Y339.352184 Z10 I9.472056 J67.595961
G02 X425.089078 Y341.186800 Z10 I14.165950 J58.262612
G02 X419.087726 Y343.669535 Z10 I23.218619 J64.619552
G02 X397.808001 Y358.050238 Z10 I36.787715 J77.370913
G02 X379.393763 Y375.986762 Z10 I316.814388 J343.672886
G02 X377.342354 Y373.797973 Z10 I-19.850884 J16.549206
G03 X375.213233 Y371.627499 Z10 I29.667288 J-31.231567
G03 X372.990021 Y369.580760 Z10 I20.689048 J-24.703717
G02 X370.730951 Y367.561644 Z10 I-17.489470 J17.294608
G02 X389.263449 Y349.570994 Z10 I-320.096701 J-348.278112
G02 X403.960050 Y328.957008 Z10 I-59.239919 J-57.780612
G02 X406.498591 Y323.113321 Z10 I-55.348924 J-27.517205
G02 X408.399265 Y317.178605 Z10 I-60.426023 J-22.623973
G02 X409.588943 Y311.171742 Z10 I-61.347139 J-15.271240
G02 X410.209381 Y304.939163 Z10 I-64.763077 J-9.594181
G02 X409.594353 Y292.556607 Z10 I-64.379536 J-3.008887
G02 X406.632187 Y279.747641 Z10 I-80.080421 J11.772181
G02 X400.509786 Y264.969270 Z10 I-94.750687 J30.596041
G02 X391.504567 Y250.071099 Z10 I-109.967459 J56.299279
G02 X386.330107 Y243.053610 Z10 I-85.018645 J57.273407
G02 X380.600517 Y236.029245 Z10 I-558.672069 J449.845255
G02 X374.540962 Y229.359005 Z10 I-379.777701 J338.920094
G02 X368.015691 Y222.699974 Z10 I-118.283345 J109.380775
G02 X340.198037 Y197.450993 Z10 I-271.621275 J271.306018
G03 X311.470211 Y171.813952 Z10 I301.789435 J-367.087105
G02 X307.989908 Y169.641246 Z10 I-6.753184 J6.943664
G02 X303.798649 Y168.879857 Z10 I-4.382191 J12.206272
G02 X299.595664 Y169.658306 Z10 I0.186889 J12.744605
G02 X296.127087 Y171.813952 Z10 I3.463868 J9.442001
G03 X267.416437 Y197.405200 Z10 I-334.616220 J-346.502936
G02 X239.581593 Y222.699974 Z10 I241.157615 J293.336751
G02 X233.080679 Y229.351149 Z10 I106.788599 J110.878669
G02 X226.996773 Y236.029245 Z10 I679.983096 J625.591309
G02 X221.267244 Y243.053603 Z10 I552.926440 J456.852047
G02 X216.092804 Y250.071099 Z10 I79.849512 J64.294527
G02 X207.087565 Y264.969273 Z10 I100.962091 J71.197496
G02 X200.965160 Y279.747641 Z10 I88.627818 J45.374259
G02 X198.002407 Y292.526546 Z10 I76.076418 J24.371007
G02 X197.387970 Y304.939163 Z10 I64.032536 J9.391188
G02 X198.008409 Y311.171739 Z10 I65.378826 J-3.361141
G02 X199.198115 Y317.178605 Z10 I62.535673 J-9.264430
G02 X201.080475 Y323.109612 Z10 I54.112348 J-13.909751
G02 X203.637279 Y328.957008 Z10 I60.692775 J-23.055542
G02 X218.333883 Y349.570995 Z10 I73.936496 J-37.166614
G02 X236.866378 Y367.561644 Z10 I338.631335 J-330.289633
G02 X234.614552 Y369.558185 Z10 I16.169459 J20.505092
G03 X232.384113 Y371.627499 Z10 I-30.586693 J-30.731590
G03 X230.278684 Y373.790468 Z10 I-23.937655 J-21.194662
G02 X228.203536 Y375.986762 Z10 I16.624088 J17.785604
G02 X209.789349 Y358.050244 Z10 I-335.224700 J325.731539
G02 X188.509637 Y343.669535 Z10 I-58.067319 J62.989964
G02 X182.511719 Y341.204340 Z10 I-27.825630 J59.171681
G02 X176.398900 Y339.352184 Z10 I-23.108707 J65.254137
G02 X170.227187 Y338.195707 Z10 I-15.643316 J66.436560
G02 X163.814086 Y337.591710 Z10 I-9.866334 J70.409993
G02 X151.066548 Y338.191206 Z10 I-3.095180 J70.014838
G02 X137.911767 Y341.070720 Z10 I12.003918 J86.326678
G02 X122.667224 Y347.048540 Z10 I30.983190 J101.439953
G02 X107.397889 Y355.783249 Z10 I55.893473 J115.422273
G02 X100.173385 Y360.822799 Z10 I56.678902 J88.950861
G02 X92.959826 Y366.387995 Z10 I441.154858 J579.278703
G02 X86.094055 Y372.287550 Z10 I332.210748 J393.564398
G02 X79.254441 Y378.627468 Z10 I106.381282 J121.625299
G02 X53.287457 Y405.688780 Z10 I262.790953 J278.153099
G03 X26.932622 Y433.621256 Z10 I-356.934640 J-310.375388
G02 X24.691038 Y437.034370 Z10 I6.575803 J6.761343
G02 X23.915713 Y441.082303 Z10 I11.149209 J4.233694
G02 X24.708440 Y445.142501 Z10 I11.730453 J-0.182806
G02 X26.932622 Y448.543353 Z10 I9.123979 J-3.539409
G03 X53.239590 Y476.458150 Z10 I-335.473011 J342.503795
G02 X79.254441 Y503.537141 Z10 I285.656913 J-248.395509
G02 X86.086474 Y509.853879 Z10 I108.188911 J-110.161499
G02 X92.959826 Y515.776611 Z10 I614.227533 J-705.863692
G02 X100.173386 Y521.341813 Z10 I448.374004 J-573.720227
G02 X107.397889 Y526.381363 Z10 I63.902749 J-83.910359
G02 X122.667225 Y535.116072 Z10 I71.163154 J-106.688177
G02 X137.911767 Y541.093875 Z10 I46.226978 J-95.460489
G02 X151.035483 Y543.973967 Z10 I24.943495 J-82.319557
G02 X163.814086 Y544.572905 Z10 I9.670554 J-69.707545
G02 X170.227187 Y543.968905 Z10 I-3.453310 J-71.014594
G02 X176.398900 Y542.812434 Z10 I-9.471716 J-67.593900
G02 X182.508278 Y540.977808 Z10 I-14.166058 J-58.263092
G02 X188.509637 Y538.495083 Z10 I-23.219317 J-64.621567
G02 X209.789352 Y524.114362 Z10 I-36.787736 J-77.370824
G02 X228.203536 Y506.177852 Z10 I-316.812548 J-343.670249
G02 X230.254978 Y508.366640 Z10 I19.850986 J-16.549599
G03 X232.384113 Y510.537116 Z10 I-29.662336 J31.226884
G03 X234.607296 Y512.583840 Z10 I-20.685267 J24.699444
G02 X236.866378 Y514.602965 Z10 I17.486539 J-17.291335
G02 X218.333879 Y532.593624 Z10 I320.098564 J348.279896
G02 X203.637279 Y553.207601 Z10 I59.239988 J57.780672
G02 X201.098745 Y559.051304 Z10 I55.345954 J27.515789
G02 X199.198115 Y564.985996 Z10 I60.424820 J22.623192
G02 X198.008409 Y570.992875 Z10 I61.346024 J15.271288
G02 X197.387970 Y577.225466 Z10 I64.758808 J9.593749
G02 X198.002987 Y589.607988 Z10 I64.379348 J3.008931
G02 X200.965160 Y602.416983 Z10 I80.079852 J-11.772033
G02 X207.087573 Y617.195367 Z10 I94.750039 J-30.595811
G02 X216.092804 Y632.093477 Z10 I109.965098 J-56.298222
G02 X221.267243 Y639.110993 Z10 I85.029004 J-57.280557
G02 X226.996773 Y646.135377 Z10 I558.457117 J-449.663911
G02 X233.056352 Y652.805621 Z10 I379.756151 J-338.901723
G02 X239.581593 Y659.464637 Z10 I118.297028 J-109.393930
G02 X267.399270 Y684.713637 Z10 I271.618331 J-271.302760
G03 X296.127087 Y710.350688 Z10 I-301.782223 J367.078791
G02 X299.607408 Y712.523371 Z10 I6.753172 J-6.943771
G02 X303.798649 Y713.284780 Z10 I4.382404 J-12.207088
G02 X308.001669 Y712.506309 Z10 I-0.186914 J-12.744588
G02 X311.470211 Y710.350688 Z10 I-3.463988 J-9.442169
G03 X340.180861 Y684.759441 Z10 I334.619722 J346.506888
G02 X368.015691 Y659.464637 Z10 I-241.155616 J-293.334076
G02 X374.516671 Y652.813445 Z10 I-106.778154 J-110.869313
G02 X380.600517 Y646.135377 Z10 I-679.472484 J-625.122585
G02 X386.330109 Y639.110986 Z10 I-552.743614 J-456.705857
G02 X391.504567 Y632.093477 Z10 I-79.849238 J-64.294440
G02 X400.509779 Y617.195369 Z10 I-100.960015 J-71.196288
G02 X406.632187 Y602.416983 Z10 I-88.628094 J-45.374347
G02 X409.594939 Y589.638054 Z10 I-76.077666 J-24.371271
G02 X410.209381 Y577.225466 Z10 I-64.032322 J-9.391203
G02 X409.588943 Y570.992873 Z10 I-65.383935 J3.361619
G02 X408.399265 Y564.985996 Z10 I-62.536875 J9.264355
G02 X406.516878 Y559.055007 Z10 I-54.108899 J13.908951
G02 X403.960050 Y553.207601 Z10 I-60.699584 J23.058713
G02 X389.263453 Y532.593625 Z10 I-73.936612 J37.166707
G02 X370.730951 Y514.602965 Z10 I-338.628926 J330.287065
G02 X372.982767 Y512.606433 Z10 I-16.173538 J-20.509675
G03 X375.213233 Y510.537116 Z10 I30.593599 J30.739364
G03 X377.318637 Y508.374142 Z10 I23.936639 J21.193365
G02 X379.393763 Y506.177852 Z10 I-16.624227 J-17.785576
G02 X397.807998 Y524.114368 Z10 I335.230657 J-325.738562
G02 X419.087726 Y538.495083 Z10 I58.067571 J-62.990349
G02 X425.085630 Y540.960268 Z10 I27.827109 J-59.175412
G02 X431.198418 Y542.812434 Z10 I23.108987 J-65.254404
G02 X437.370172 Y543.968906 Z10 I15.643923 J-66.440352
G02 X443.783243 Y544.572905 Z10 I9.866337 J-70.409750
G02 X456.530811 Y543.973396 Z10 I3.095138 J-70.014728
G02 X469.685570 Y541.093875 Z10 I-12.004074 J-86.327006
G02 X484.930159 Y535.116064 Z10 I-30.982338 J-101.438274
G02 X500.199465 Y526.381363 Z10 I-55.893064 J-115.421424
G02 X507.423947 Y521.341816 Z10 I-56.679940 J-88.952116
G02 X514.637503 Y515.776611 Z10 I-441.117503 J-579.229140
G02 X521.503299 Y509.877058 Z10 I-332.107162 J-393.445372
G02 X528.342920 Y503.537141 Z10 I-106.386421 J-121.630979
G02 X554.309896 Y476.475831 Z10 I-262.790757 J-278.152849
G03 X580.664718 Y448.543353 Z10 I356.935716 J310.376236
G02 X582.906306 Y445.130236 Z10 I-6.575688 J-6.761274
G02 X583.681646 Y441.082303 Z10 I-11.149640 J-4.233819
G02 X582.889651 Y436.993442 Z10 I-11.903828 J0.184586
G02 X580.664718 Y433.621256 Z10 I-8.793779 J3.381957
G01 X580.664718 Y433.621256 Z10 
G00 Z40.000000

(End cutting path id: path61)


(Start cutting path id: path61)
(Change tool to Default tool)

G00 Z40.000000
G00 X388.573859 Y383.280147

G01 Z10 F2500.0(Penetrate)
G03 X398.039025 Y373.321396 Z10 I99.072585 J84.684865 F2500
G03 X408.097513 Y365.172433 Z10 I57.724925 J60.969234
G02 X401.697296 Y389.649546 Z10 I382.714283 J113.146524
G02 X398.400357 Y406.711187 Z10 I255.481894 J58.217900
G02 X393.248169 Y395.549380 Z10 I-111.960056 J44.909738
G02 X386.634343 Y384.998699 Z10 I-72.122505 J37.862569
G02 X387.656228 Y384.241874 Z10 I-4.472897 J-7.107715
G02 X388.573859 Y383.280147 Z10 I-4.555522 J-5.265291
G01 X388.573859 Y383.280147 Z10 
G00 Z40.000000

(End cutting path id: path61)


(Start cutting path id: path61)
(Change tool to Default tool)

G00 Z40.000000
G00 X407.882064 Y441.082303

G01 Z10 F2500.0(Penetrate)
G03 X407.864604 Y434.458573 Z10 I90.659450 J-3.550868 F2500
G02 X408.011350 Y427.711102 Z10 I-278.040683 J-9.422253
G03 X420.895121 Y426.924538 Z10 I9.170023 J44.293065
G03 X428.353928 Y429.220080 Z10 I-1.492303 J18.114440
G03 X431.522944 Y431.599875 Z10 I-8.178719 J14.190939
G03 X433.784335 Y434.375744 Z10 I-10.209159 J10.626071
G03 X435.121222 Y437.633012 Z10 I-12.186142 J6.904568
G03 X435.637632 Y441.040390 Z10 I-14.750429 J3.978342
G03 X435.121223 Y444.447766 Z10 I-15.266847 J-0.570965
G03 X433.784335 Y447.705031 Z10 I-13.522947 J-3.647274
G03 X431.522942 Y450.480906 Z10 I-12.470530 J-7.850168
G03 X428.353928 Y452.860701 Z10 I-11.347721 J-11.811123
G03 X420.860219 Y455.163854 Z10 I-9.074299 J-16.182190
G03 X408.011350 Y454.369678 Z10 I-3.743161 J-43.777062
G02 X407.865347 Y447.695702 Z10 I-273.171054 J2.637448
G03 X407.882064 Y441.082303 Z10 I90.267499 J-3.078542
G01 X407.882064 Y441.082303 Z10 
G00 Z40.000000

(End cutting path id: path61)


(Start cutting path id: path61)
(Change tool to Default tool)

G00 Z40.000000
G00 X363.145580 Y358.591620

G01 Z10 F2500.0(Penetrate)
G02 X362.149632 Y359.530140 Z10 I8.761893 J10.295741 F2500
G02 X361.378530 Y360.435923 Z10 I7.257142 J6.959190
G02 X350.534268 Y354.010968 Z10 I-48.058464 J68.750615
G02 X339.053370 Y348.992867 Z10 I-58.407298 J117.987265
G02 X356.608359 Y345.796323 Z10 I-43.097396 J-286.488191
G02 X381.764232 Y339.561762 Z10 I-84.720212 J-395.706261
G03 X373.457390 Y349.340657 Z10 I-64.280125 J-46.186161
G03 X363.145580 Y358.591620 Z10 I-90.337267 J-90.323988
G01 X363.145580 Y358.591620 Z10 
G00 Z40.000000

(End cutting path id: path61)


(Start cutting path id: path61)
(Change tool to Default tool)

G00 Z40.000000
G00 X322.805215 Y312.777434

G01 Z10 F2500.0(Penetrate)
G02 X315.375727 Y304.199238 Z10 I-19.656977 J9.518309 F2500
G02 X303.755554 Y300.579874 Z10 I-11.824590 J17.500221
G02 X292.135412 Y304.199231 Z10 I0.204417 J21.119517
G02 X284.705921 Y312.777434 Z10 I12.227512 J18.096525
G02 X281.761834 Y324.391123 Z10 I26.079480 J12.791193
G02 X283.111280 Y339.352184 Z10 I57.670063 J2.339710
G03 X279.569889 Y339.148880 Z10 I21.642435 J-407.940475
G03 X275.956893 Y338.849179 Z10 I5.302826 J-85.855070
G03 X272.316251 Y338.513176 Z10 I2.379083 J-45.669152
G02 X268.543917 Y338.136625 Z10 I-7.672494 J57.779768
G03 X267.135734 Y327.742905 Z10 I72.814320 J-15.157434
G03 X267.380256 Y318.184614 Z10 I53.276240 J-3.419351
G03 X268.108803 Y313.391853 Z10 I56.004229 J6.061448
G03 X269.276597 Y308.879268 Z10 I38.567102 J7.573229
G03 X270.920954 Y304.570517 Z10 I42.206447 J13.639180
G03 X272.983087 Y300.454144 Z10 I44.028441 J19.481723
G03 X285.246707 Y287.855343 Z10 I31.178236 J18.080686
G03 X303.755554 Y282.514096 Z10 I18.846785 J30.569466
G03 X322.234499 Y287.655433 Z10 I0.325754 J34.608268
G03 X334.571116 Y300.412234 Z10 I-18.811352 J30.535282
G03 X336.627699 Y304.540892 Z10 I-40.130190 J22.566345
G03 X338.277625 Y308.921178 Z10 I-41.420437 J18.102761
G03 X339.448874 Y313.506152 Z10 I-38.675646 J12.321925
G03 X340.173961 Y318.310344 Z10 I-56.819410 J11.032452
G03 X340.384174 Y327.942553 Z10 I-55.762122 J6.035347
G03 X339.010331 Y338.220445 Z10 I-75.362239 J-4.842885
G02 X335.236117 Y338.628977 Z10 I6.559195 J78.235141
G03 X331.597341 Y338.933028 Z10 I-4.942576 J-37.225268
G03 X327.920122 Y339.234682 Z10 I-9.316994 J-91.011903
G03 X324.442923 Y339.436004 Z10 I-27.875710 J-451.335380
G02 X325.750241 Y324.376330 Z10 I-57.896824 J-12.612558
G02 X322.805215 Y312.777434 Z10 I-29.041089 J1.200371
G01 X322.805215 Y312.777434 Z10 
G00 Z40.000000

(End cutting path id: path61)


(Start cutting path id: path61)
(Change tool to Default tool)

G00 Z40.000000
G00 X317.504038 Y339.687492

G01 Z10 F2500.0(Penetrate)
G02 X310.598610 Y339.829338 Z10 I2.744164 J301.750960 F2500
G03 X303.755554 Y339.813250 Z10 I-3.187336 J-99.623860
G03 X296.945072 Y339.830231 Z10 I-3.650952 J-98.538823
G02 X290.007070 Y339.687492 Z10 I-9.687363 J302.179691
G03 X289.201767 Y327.186270 Z10 I40.635434 J-8.894199
G03 X291.558615 Y319.903150 Z10 I17.005587 J1.480175
G03 X293.987897 Y316.838311 Z10 I13.611755 J8.293902
G03 X296.859764 Y314.621756 Z10 I10.607125 J10.774324
G03 X300.197541 Y313.323859 Z10 I7.001601 J13.065081
G03 X303.712458 Y312.819372 Z10 I4.101279 J16.077895
G03 X307.227371 Y313.323857 Z10 I-0.586362 J16.582389
G03 X310.565181 Y314.621756 Z10 I-3.663928 J14.363410
G03 X313.437001 Y316.838296 Z10 I-7.735772 J12.991395
G03 X315.866302 Y319.903150 Z10 I-11.182391 J11.358718
G03 X318.275501 Y327.196432 Z10 I-14.588121 J8.863470
G03 X317.504038 Y339.687492 Z10 I-40.673156 J3.757328
G01 X317.504038 Y339.687492 Z10 
G00 Z40.000000

(End cutting path id: path61)


(Start cutting path id: path61)
(Change tool to Default tool)

G00 Z40.000000
G00 X260.699954 Y337.088705

G01 Z10 F2500.0(Penetrate)
G03 X253.276175 Y335.834762 Z10 I63.278867 J-397.235395 F2500
G03 X244.968933 Y334.154582 Z10 I32.566453 J-182.393616
G03 X241.883248 Y319.645471 Z10 I81.090569 J-24.828388
G03 X241.779630 Y305.735538 Z10 I60.406690 J-7.405334
G03 X244.793464 Y292.174883 Z10 I56.730775 J5.493089
G03 X251.088947 Y279.538062 Z10 I54.966619 J19.497012
G03 X260.330137 Y268.871884 Z10 I51.080991 J34.920254
G03 X272.896890 Y260.130938 Z10 I38.501662 J41.949373
G03 X287.193954 Y254.692231 Z10 I29.963709 J57.256308
G03 X303.712458 Y252.627976 Z10 I16.779548 J67.148644
G03 X320.230954 Y254.692146 Z10 I-0.259605 J69.204095
G03 X334.528049 Y260.130938 Z10 I-15.668108 J62.698134
G03 X347.082766 Y268.848420 Z10 I-26.051249 J50.917661
G03 X356.335981 Y279.538062 Z10 I-41.102104 J44.928708
G03 X362.631453 Y292.174886 Z10 I-48.670268 J32.133346
G03 X365.645279 Y305.735538 Z10 I-53.717998 J19.053945
G03 X365.536540 Y319.677497 Z10 I-60.721732 J6.497813
G03 X362.456027 Y334.154582 Z10 I-84.096818 J-10.328297
G03 X354.148744 Y335.834765 Z10 I-40.874041 J-180.715605
G03 X346.724988 Y337.088705 Z10 I-70.706560 J-396.004373
G02 X348.955634 Y325.103702 Z10 I-78.259998 J-20.765817
G02 X349.052277 Y313.741505 Z10 I-56.484422 J-6.161948
G02 X348.262434 Y308.057557 Z10 I-60.905754 J5.566628
G02 X346.897369 Y302.633774 Z10 I-44.685039 J8.362719
G02 X344.933983 Y297.476790 Z10 I-50.357557 J16.220074
G02 X342.328869 Y292.490087 Z10 I-39.336420 J17.375997
G02 X335.505827 Y283.816790 Z10 I-39.751970 J24.251375
G02 X326.425505 Y276.897337 Z10 I-30.144623 J30.140726
G02 X323.878939 Y275.554292 Z10 I-42.104605 J76.749348
G02 X321.253670 Y274.298550 Z10 I-28.947628 J57.146149
G02 X318.515867 Y273.316899 Z10 I-17.326219 J44.013770
G02 X315.693921 Y272.454256 Z10 I-26.995833 J83.263936
G02 X309.895903 Y271.266811 Z10 I-8.932116 J28.864528
G02 X303.712458 Y270.819540 Z10 I-10.142803 J97.256463
G02 X297.582487 Y271.264476 Z10 I3.988774 J97.403696
G02 X291.774120 Y272.454256 Z10 I3.143000 J30.116520
G02 X288.921026 Y273.320858 Z10 I27.318250 J95.069151
G02 X286.214398 Y274.298550 Z10 I11.968692 J37.369276
G02 X283.530914 Y275.567384 Z10 I21.978227 J49.954339
G02 X281.042541 Y276.897337 Z10 I29.026000 J57.301194
G02 X271.938748 Y283.828950 Z10 I20.645440 J36.559307
G02 X265.139124 Y292.490087 Z10 I33.198715 J33.063082
G02 X262.571881 Y297.464399 Z10 I39.776014 J23.678033
G02 X260.570663 Y302.633774 Z10 I54.446200 J24.049792
G02 X259.205570 Y308.057560 Z10 I43.317548 J13.786110
G02 X258.415727 Y313.741505 Z10 I60.114625 J11.250410
G02 X258.470459 Y325.072753 Z10 I54.990875 J5.400138
G02 X260.699954 Y337.088705 Z10 I80.107510 J-8.648705
G01 X260.699954 Y337.088705 Z10 
G00 Z40.000000

(End cutting path id: path61)


(Start cutting path id: path61)
(Change tool to Default tool)

G00 Z40.000000
G00 X214.153362 Y312.064879

G01 Z10 F2500.0(Penetrate)
G03 X213.407409 Y304.219374 Z10 I63.363898 J-9.982875 F2500
G03 X213.593080 Y295.969125 Z10 I73.905945 J-2.463964
G03 X216.899849 Y279.894855 Z10 I73.913127 J6.828003
G03 X223.764372 Y264.574047 Z10 I74.367216 J24.122166
G03 X238.700773 Y243.788347 Z10 I106.711391 J60.922337
G03 X258.760515 Y223.873623 Z10 I171.493955 J152.682495
G03 X280.611775 Y205.883378 Z10 I269.752321 J305.380202
G02 X303.712458 Y187.532432 Z10 I-520.010877 J-678.319606
G02 X326.808686 Y205.875883 Z10 I539.707090 J-655.832900
G03 X348.707486 Y223.873623 Z10 I-252.948320 J330.097154
G03 X368.777751 Y243.772275 Z10 I-149.103417 J170.460349
G03 X383.703635 Y264.574047 Z10 I-91.362360 J81.310945
G03 X390.568224 Y279.894869 Z10 I-67.501054 J39.442537
G03 X393.874980 Y295.969125 Z10 I-70.605465 J22.902039
G03 X394.066262 Y304.232516 Z10 I-74.706318 J5.863219
G03 X393.357808 Y312.022941 Z10 I-66.687447 J-2.137069
G03 X391.574856 Y319.814053 Z10 I-62.462625 J-10.194649
G03 X388.875526 Y327.196534 Z10 I-60.442483 J-17.915457
G03 X384.425000 Y328.559445 Z10 I-43.960667 J-135.603729
G03 X380.255726 Y329.753411 Z10 I-310.917428 J-1077.832528
G03 X375.986044 Y330.946617 Z10 I-44.466130 J-150.878560
G03 X372.067020 Y331.933042 Z10 I-43.628004 J-165.054075
G02 X375.648459 Y316.214693 Z10 I-81.985357 J-26.947625
G02 X375.816596 Y300.789452 Z10 I-64.101099 J-8.412246
G02 X374.554205 Y293.150598 Z10 I-52.472101 J4.747760
G02 X372.325563 Y285.615859 Z10 I-76.007691 J18.384755
G02 X370.861295 Y281.970671 Z10 I-35.899481 J12.304089
G02 X369.136311 Y278.406295 Z10 I-105.832986 J49.018417
G02 X367.199123 Y274.890171 Z10 I-62.225536 J31.991102
G02 X364.998821 Y271.532095 Z10 I-36.213549 J21.328212
G02 X354.289914 Y259.495886 Z10 I-50.798254 J34.414344
G02 X339.570570 Y249.568094 Z10 I-49.004259 J56.780046
G02 X322.895697 Y243.343154 Z10 I-35.054649 J68.455468
G02 X303.712458 Y241.017241 Z10 I-19.183239 J77.945024
G02 X284.496773 Y243.343253 Z10 I-0.000000 J80.535448
G02 X267.854338 Y249.568094 Z10 I18.159008 J73.908671
G02 X253.184477 Y259.480221 Z10 I34.539495 J66.929849
G02 X242.426108 Y271.532095 Z10 I40.705260 J47.164227
G02 X240.225800 Y274.890175 Z10 I34.011729 J24.685321
G02 X238.288631 Y278.406295 Z10 I60.283942 J35.504498
G02 X236.563622 Y281.970671 Z10 I104.125116 J52.591805
G02 X235.099328 Y285.615859 Z10 I34.433722 J15.948936
G02 X232.870723 Y293.150593 Z10 I73.781573 J25.919883
G02 X231.608335 Y300.789452 Z10 I51.211220 J12.386840
G02 X231.776472 Y316.214687 Z10 I64.270526 J7.012976
G02 X235.357920 Y331.933042 Z10 I85.564291 J-11.228739
G03 X231.429730 Y330.942965 Z10 I38.748844 J-162.026104
G03 X227.212269 Y329.753411 Z10 I35.407158 J-133.604131
G03 X223.043031 Y328.559446 Z10 I306.888151 J-1079.506991
G03 X218.592528 Y327.196534 Z10 I39.508823 J-136.961473
G03 X215.935951 Y319.871086 Z10 I58.967752 J-25.529114
G03 X214.153362 Y312.064879 Z10 I61.254610 J-18.094452
G01 X214.153362 Y312.064879 Z10 
G00 Z40.000000

(End cutting path id: path61)


(Start cutting path id: path61)
(Change tool to Default tool)

G00 Z40.000000
G00 X225.746912 Y339.561762

G01 Z10 F2500.0(Penetrate)
G02 X250.899393 Y345.783234 Z10 I115.573311 J-413.291054 F2500
G02 X268.457721 Y348.992867 Z10 I59.728193 J-277.112307
G02 X256.947918 Y354.019311 Z10 I45.367192 J119.575137
G02 X246.132594 Y360.435923 Z10 I37.518423 J75.561065
G02 X245.345471 Y359.481992 Z10 I-6.780141 J4.792840
G02 X244.365550 Y358.591620 Z10 I-6.949038 J6.663508
G03 X234.053746 Y349.340657 Z10 I80.024962 J-99.574335
G03 X225.746912 Y339.561762 Z10 I55.973423 J-55.965123
G01 X225.746912 Y339.561762 Z10 
G00 Z40.000000

(End cutting path id: path61)


(Start cutting path id: path61)
(Change tool to Default tool)

G00 Z40.000000
G00 X218.937319 Y383.280147

G01 Z10 F2500.0(Penetrate)
G02 X219.899471 Y384.246182 Z10 I9.992341 J-8.990012 F2500
G02 X220.833661 Y384.998699 Z10 I6.884000 J-7.589812
G02 X214.211460 Y395.577359 Z10 I65.131168 J48.133927
G02 X209.067714 Y406.711187 Z10 I110.015753 J57.581562
G02 X205.784261 Y389.653194 Z10 I-264.445552 J42.057496
G02 X199.370511 Y365.172433 Z10 I-367.060883 J83.086266
G03 X209.476167 Y373.331285 Z10 I-46.942663 J68.481690
G03 X218.937319 Y383.280147 Z10 I-89.015663 J94.125077
G01 X218.937319 Y383.280147 Z10 
G00 Z40.000000

(End cutting path id: path61)


(Start cutting path id: path61)
(Change tool to Default tool)

G00 Z40.000000
G00 X199.499803 Y454.411591

G01 Z10 F2500.0(Penetrate)
G03 X186.615991 Y455.198156 Z10 I-9.170053 J-44.293354 F2500
G03 X179.157219 Y452.902617 Z10 I1.492282 J-18.114255
G03 X175.988205 Y450.522821 Z10 I8.178488 J-14.190623
G03 X173.726786 Y447.746950 Z10 I10.209950 J-10.626828
G03 X172.389936 Y444.489690 Z10 I12.187038 J-6.904791
G03 X171.873540 Y441.082303 Z10 I14.749901 J-3.978200
G03 X172.389936 Y437.674921 Z10 I15.266286 J0.570814
G03 X173.726786 Y434.417662 Z10 I13.523852 J3.647521
G03 X175.988206 Y431.641787 Z10 I12.471317 J7.850904
G03 X179.157219 Y429.261993 Z10 I11.347505 J11.810836
G03 X186.650946 Y426.958846 Z10 I9.074337 J16.182381
G03 X199.499803 Y427.753018 Z10 I3.743167 J43.777042
G02 X199.645639 Y434.468830 Z10 I277.576300 J-2.668207
G03 X199.629103 Y441.124222 Z10 I-91.648695 J3.099995
G03 X199.646966 Y447.674670 Z10 I-88.953442 J3.517834
G02 X199.499803 Y454.411591 Z10 I275.311755 J9.384084
G01 X199.499803 Y454.411591 Z10 
G00 Z40.000000

(End cutting path id: path61)


(Start cutting path id: path61)
(Change tool to Default tool)

G00 Z40.000000
G00 X189.285415 Y515.483205

G01 Z10 F2500.0(Penetrate)
G03 X188.058128 Y519.536778 Z10 I-1001.296473 J-300.946850 F2500
G03 X186.656391 Y523.866404 Z10 I-127.386836 J-38.850351
G03 X179.110177 Y526.481804 Z10 I-25.827705 J-62.326439
G03 X171.054667 Y528.225668 Z10 I-18.254163 J-64.844764
G03 X162.989797 Y528.951256 Z10 I-10.258499 J-68.839572
G03 X154.504769 Y528.770571 Z10 I-2.533541 J-80.344563
G03 X137.922755 Y525.539820 Z10 I6.997732 J-80.085696
G03 X122.223841 Y518.878397 Z10 I24.183153 J-78.821667
G03 X100.770687 Y504.275592 Z10 I60.251910 J-111.576736
G03 X80.375007 Y484.800693 Z10 I146.259476 J-173.592133
G03 X61.868661 Y463.538021 Z10 I294.176234 J-274.726540
G02 X43.008435 Y441.082303 Z10 I-654.087644 J530.210488
G02 X61.861313 Y418.630459 Z10 I-631.178028 J-549.143330
G03 X80.375007 Y397.322003 Z10 I319.134190 J258.580414
G03 X100.771369 Y377.869774 Z10 I164.979352 J152.567506
G03 X122.223841 Y363.286212 Z10 I82.030290 J97.596742
G03 X137.922753 Y356.624792 Z10 I39.882144 J72.160460
G03 X154.504769 Y353.394035 Z10 I23.579800 J76.855079
G03 X163.003069 Y353.207887 Z10 I6.030413 J81.227514
G03 X171.011566 Y353.897028 Z10 I-2.193808 J72.371991
G03 X179.036602 Y355.634828 Z10 I-10.430151 J67.564130
G03 X186.613296 Y358.256292 Z10 I-18.120907 J64.634014
G03 X188.015029 Y362.585916 Z10 I-125.992070 J43.182163
G03 X189.242314 Y366.639492 Z10 I-999.489988 J304.824269
G03 X190.469606 Y370.793541 Z10 I-139.963117 J43.609682
G03 X191.483447 Y374.603532 Z10 I-152.808539 J42.702317
G02 X175.340094 Y371.120964 Z10 I-27.594945 J88.758309
G02 X159.461116 Y370.956843 Z10 I-8.661426 J69.766501
G02 X151.565194 Y372.188526 Z10 I4.915899 J57.439151
G02 X143.859386 Y374.352035 Z10 I17.935555 J78.686092
G02 X140.106515 Y375.778345 Z10 I12.460180 J38.435311
G02 X136.446410 Y377.453818 Z10 I49.267779 J112.461949
G02 X132.824443 Y379.341419 Z10 I32.110997 J66.034018
G02 X129.378225 Y381.477754 Z10 I21.139789 J37.949321
G02 X116.926447 Y391.976674 Z10 I33.729718 J52.637034
G02 X106.794507 Y406.208193 Z10 I53.475906 J48.793869
G02 X100.382753 Y422.479473 Z10 I63.793621 J34.537022
G02 X98.002373 Y441.082303 Z10 I71.500990 J18.602830
G02 X100.382846 Y459.716377 Z10 I74.122937 J0.000000
G02 X106.794507 Y475.956416 Z10 I69.487615 J-18.048410
G02 X116.911045 Y490.140611 Z10 I63.825153 J-34.821978
G02 X129.378225 Y500.686852 Z10 I46.874919 J-42.770799
G02 X132.824444 Y502.823190 Z10 I24.585821 J-35.812649
G02 X136.446410 Y504.710788 Z10 I35.732338 J-64.145295
G02 X140.106516 Y506.386263 Z10 I52.925977 J-110.782217
G02 X143.859386 Y507.812574 Z10 I16.213253 J-37.009496
G02 X151.596162 Y509.977664 Z10 I26.428389 J-79.533810
G02 X159.461116 Y511.207772 Z10 I12.733768 J-55.657840
G02 X175.340094 Y511.043648 Z10 I7.217541 J-69.930516
G02 X191.483447 Y507.561077 Z10 I-11.451647 J-92.241055
G03 X190.509284 Y511.344193 Z10 I-114.697975 J-27.518056
G03 X189.285415 Y515.483205 Z10 I-110.032593 J-30.285206
G01 X189.285415 Y515.483205 Z10 
G00 Z40.000000

(End cutting path id: path61)


(Start cutting path id: path61)
(Change tool to Default tool)

G00 Z40.000000
G00 X193.810775 Y498.213812

G01 Z10 F2500.0(Penetrate)
G03 X178.906854 Y501.214447 Z10 I-25.439070 J-87.840286 F2500
G03 X164.589865 Y501.315595 Z10 I-7.623250 J-65.732632
G03 X150.592030 Y498.368375 Z10 I5.627183 J-61.441328
G03 X137.653176 Y492.261740 Z10 I19.449348 J-57.970508
G03 X126.616827 Y483.204635 Z10 I34.309509 J-53.059755
G03 X117.698481 Y471.052246 Z10 I39.528837 J-38.357937
G03 X112.096229 Y457.099520 Z10 I53.380084 J-29.534057
G03 X109.983810 Y441.082303 Z10 I61.593496 J-16.271119
G03 X112.096233 Y425.065093 Z10 I63.706257 J0.253971
G03 X117.698481 Y411.112369 Z10 I58.982230 J15.581276
G03 X126.592611 Y398.972224 Z10 I48.656706 J26.318856
G03 X137.653176 Y389.902872 Z10 I44.698593 J43.233196
G03 X150.592030 Y383.796236 Z10 I32.388222 J51.863905
G03 X164.589865 Y380.849017 Z10 I19.624990 J58.493996
G03 X178.939806 Y380.955171 Z10 I6.686659 J66.062897
G03 X193.810775 Y383.950802 Z10 I-10.544345 J90.753626
G03 X195.538836 Y392.032760 Z10 I-167.003878 J39.934010
G03 X196.827683 Y399.250137 Z10 I-365.161069 J68.932591
G02 X184.513710 Y397.080923 Z10 I-21.293289 J84.839614
G02 X172.821711 Y396.986675 Z10 I-6.341727 J61.450811
G02 X166.971007 Y397.755845 Z10 I5.714924 J66.106970
G02 X161.400559 Y399.082474 Z10 I8.520879 J48.137073
G02 X156.085577 Y400.996996 Z10 I16.463999 J54.041210
G02 X150.970675 Y403.525569 Z10 I17.370794 J41.575957
G02 X141.996602 Y410.213343 Z10 I23.945890 J41.496965
G02 X134.937958 Y418.992575 Z10 I28.524218 J30.161180
G02 X133.555806 Y421.471459 Z10 I72.374242 J41.978490
G02 X132.265841 Y424.022495 Z10 I53.606187 J28.708335
G02 X131.255726 Y426.687425 Z10 I41.025997 J17.074402
G02 X130.369497 Y429.429658 Z10 I77.221226 J26.470504
G02 X129.148111 Y435.076000 Z10 I26.661381 J8.722520
G02 X128.688646 Y441.082303 Z10 I89.295572 J9.851569
G02 X129.145714 Y447.036664 Z10 I89.477202 J-3.873712
G02 X130.369497 Y452.693038 Z10 I27.942625 J-3.084944
G02 X131.259739 Y455.465331 Z10 I88.230925 J-26.803721
G02 X132.265841 Y458.100199 Z10 I34.931524 J-11.828797
G02 X133.568943 Y460.707206 Z10 I46.946460 J-21.836811
G02 X134.937958 Y463.130119 Z10 I54.196669 J-29.024453
G02 X142.008592 Y471.932101 Z10 I35.103752 J-20.957941
G02 X150.970675 Y478.597124 Z10 I33.061577 J-35.098129
G02 X156.073941 Y481.089312 Z10 I23.817168 J-42.299460
G02 X161.400559 Y483.040222 Z10 I24.484747 J-58.604142
G02 X166.971007 Y484.366851 Z10 I14.091327 J-46.810444
G02 X172.821711 Y485.136021 Z10 I11.565629 J-65.337800
G02 X184.513710 Y485.041772 Z10 I5.350265 J-61.544983
G02 X196.827683 Y482.872556 Z10 I-8.979350 J-87.008968
G03 X195.535656 Y490.142081 Z10 I-348.551728 J-58.199199
G03 X193.810775 Y498.213812 Z10 I-167.703345 J-31.617040
G01 X193.810775 Y498.213812 Z10 
G00 Z40.000000

(End cutting path id: path61)


(Start cutting path id: path61)
(Change tool to Default tool)

G00 Z40.000000
G00 X198.637828 Y468.118125

G01 Z10 F2500.0(Penetrate)
G03 X198.292360 Y471.658767 Z10 I-42.060146 J-2.316719 F2500
G02 X197.905154 Y475.327678 Z10 I53.182699 J7.467642
G03 X187.222041 Y476.697480 Z10 I-15.566174 J-79.057123
G03 X177.390175 Y476.459406 Z10 I-3.516387 J-57.916980
G03 X172.456921 Y475.749968 Z10 I6.220700 J-60.764143
G03 X167.822263 Y474.615104 Z10 I7.714648 J-41.536923
G03 X163.383480 Y473.012350 Z10 I13.837176 J-45.269599
G03 X159.159426 Y471.010327 Z10 I19.530866 J-46.665201
G03 X146.106292 Y458.911230 Z10 I17.589733 J-32.067464
G03 X140.713184 Y441.082303 Z10 I27.867621 J-18.159883
G03 X145.900510 Y423.285045 Z10 I32.030568 J-0.318722
G03 X159.116325 Y411.112369 Z10 I30.514686 J19.869136
G03 X163.352773 Y409.115811 Z10 I22.724693 J42.726100
G03 X167.865364 Y407.507592 Z10 I18.438227 J44.601667
G03 X172.574527 Y406.369330 Z10 I12.591715 J41.783452
G03 X177.519466 Y405.663287 Z10 I11.336957 J61.731483
G03 X187.427351 Y405.458655 Z10 I6.208605 J60.645996
G03 X197.991353 Y406.795018 Z10 I-4.965030 J81.671368
G02 X198.411471 Y410.465941 Z10 I72.055655 J-6.386885
G03 X198.724027 Y414.004568 Z10 I-34.241057 J4.807530
G03 X199.034232 Y417.581276 Z10 I-83.790436 J9.068877
G03 X199.241211 Y420.962624 Z10 I-414.630650 J27.077341
G02 X183.822680 Y419.661380 Z10 I-12.900512 J60.860816
G02 X171.916641 Y422.513520 Z10 I1.281001 J31.623932
G02 X163.022245 Y429.855115 Z10 I9.320837 J20.350875
G02 X159.374917 Y441.040390 Z10 I15.941938 J11.385697
G02 X163.022242 Y452.225660 Z10 I19.589256 J-0.200422
G02 X171.916641 Y459.567263 Z10 I18.215277 J-13.009310
G02 X183.830172 Y462.436137 Z10 I13.104196 J-28.246596
G02 X199.241211 Y461.118151 Z10 I2.399390 J-62.702873
G02 X198.955681 Y464.616530 Z10 I172.864822 J15.869655
G03 X198.637828 Y468.118125 Z10 I-91.340854 J-6.526137
G01 X198.637828 Y468.118125 Z10 
G00 Z40.000000

(End cutting path id: path61)


(Start cutting path id: path61)
(Change tool to Default tool)

G00 Z40.000000
G00 X218.937319 Y498.842550

G01 Z10 F2500.0(Penetrate)
G03 X209.465695 Y508.802505 Z10 I-98.593875 J-84.276276 F2500
G03 X199.413606 Y516.908348 Z10 I-56.291599 J-59.521704
G02 X205.813867 Y492.431228 Z10 I-382.703767 J-113.144444
G02 X209.110815 Y475.369591 Z10 I-255.480817 J-58.217851
G02 X214.262965 Y486.531399 Z10 I111.955316 J-44.907174
G02 X220.876759 Y497.082079 Z10 I72.123763 J-37.863166
G02 X219.838596 Y497.903452 Z10 I5.535738 J8.063587
G02 X218.937319 Y498.842550 Z10 I6.355266 J7.001353
G01 X218.937319 Y498.842550 Z10 
G00 Z40.000000

(End cutting path id: path61)


(Start cutting path id: path61)
(Change tool to Default tool)

G00 Z40.000000
G00 X244.322449 Y523.572989

G01 Z10 F2500.0(Penetrate)
G02 X245.318403 Y522.634467 Z10 I-8.758880 J-10.292579 F2500
G02 X246.089499 Y521.728684 Z10 I-7.258579 J-6.960360
G02 X256.933752 Y528.153645 Z10 I48.058617 J-68.750743
G02 X268.414626 Y533.171753 Z10 I58.407692 J-117.987758
G02 X250.859678 Y536.368279 Z10 I43.095094 J286.476387
G02 X225.703811 Y542.602853 Z10 I84.720633 J395.707054
G03 X234.058411 Y532.808271 Z10 I65.955660 J47.798527
G03 X244.322449 Y523.572989 Z10 I92.541395 J92.528620
G01 X244.322449 Y523.572989 Z10 
G00 Z40.000000

(End cutting path id: path61)


(Start cutting path id: path61)
(Change tool to Default tool)

G00 Z40.000000
G00 X284.705921 Y569.345260

G01 Z10 F2500.0(Penetrate)
G02 X292.135417 Y577.923473 Z10 I19.656995 J-9.518299 F2500
G02 X303.755554 Y581.542817 Z10 I11.824519 J-17.500109
G02 X315.375722 Y577.923466 Z10 I-0.204382 J-21.119521
G02 X322.805215 Y569.345260 Z10 I-12.227474 J-18.096491
G02 X325.749291 Y557.731572 Z10 I-26.079626 J-12.791204
G02 X324.399827 Y542.770515 Z10 I-57.669416 J-2.339698
G03 X327.941258 Y542.973818 Z10 I-21.622578 J407.600418
G03 X331.554245 Y543.273508 Z10 I-5.304490 J85.877973
G03 X335.194842 Y543.609517 Z10 I-2.379802 J45.675406
G02 X338.967207 Y543.986083 Z10 I7.673858 J-57.791534
G03 X340.375400 Y554.379792 Z10 I-72.809936 J15.156913
G03 X340.130866 Y563.938096 Z10 I-53.277398 J3.419261
G03 X339.402328 Y568.730824 Z10 I-56.007154 J-6.061857
G03 X338.234530 Y573.243448 Z10 I-38.566008 J-7.572874
G03 X336.590184 Y577.552179 Z10 I-42.202172 J-13.637527
G03 X334.528049 Y581.668561 Z10 I-44.032815 J-19.483891
G03 X322.264426 Y594.267349 Z10 I-31.178200 J-18.080686
G03 X303.755554 Y599.608609 Z10 I-18.846857 J-30.569632
G03 X285.276645 Y594.467269 Z10 I-0.325732 J-34.608203
G03 X272.939986 Y581.710479 Z10 I18.811601 J-30.535641
G03 X270.883431 Y577.581819 Z10 I40.140331 J-22.571103
G03 X269.233496 Y573.201530 Z10 I41.416108 J-18.101198
G03 X268.062237 Y568.616549 Z10 I38.673431 J-12.321439
G03 X267.337155 Y563.812347 Z10 I56.819866 J-11.032450
G03 X267.126964 Y554.180136 Z10 I55.761046 J-6.035198
G03 X268.500822 Y543.902249 Z10 I75.364888 J4.843353
G02 X272.275012 Y543.493715 Z10 I-6.559629 J-78.238289
G03 X275.913798 Y543.189674 Z10 I4.942298 J37.223203
G03 X279.591025 Y542.888006 Z10 I9.317652 J91.015975
G03 X283.068185 Y542.686684 Z10 I27.851873 J450.917686
G02 X281.747044 Y557.749402 Z10 I56.429980 J12.538734
G02 X284.705921 Y569.345260 Z10 I29.203480 J-1.276323
G01 X284.705921 Y569.345260 Z10 
G00 Z40.000000

(End cutting path id: path61)


(Start cutting path id: path61)
(Change tool to Default tool)

G00 Z40.000000
G00 X290.007070 Y542.477106

G01 Z10 F2500.0(Penetrate)
G02 X296.912518 Y542.335268 Z10 I-2.743467 J-301.735253 F2500
G03 X303.755554 Y542.351356 Z10 I3.187314 J99.624952
G03 X310.566057 Y542.334380 Z10 I3.650894 J98.539526
G02 X317.504038 Y542.477106 Z10 I9.685456 J-302.114729
G03 X318.309341 Y554.978359 Z10 I-40.634811 J8.894171
G03 X315.952465 Y562.261456 Z10 I-17.005419 J-1.480207
G03 X313.523225 Y565.326297 Z10 I-13.611441 J-8.293489
G03 X310.651343 Y567.542873 Z10 I-10.606913 J-10.773981
G03 X307.313589 Y568.840763 Z10 I-7.001462 J-13.064744
G03 X303.798649 Y569.345260 Z10 I-4.101425 J-16.078596
G03 X300.283750 Y568.840768 Z10 I0.586487 J-16.582934
G03 X296.945955 Y567.542873 Z10 I3.663831 J-14.363121
G03 X294.074089 Y565.326305 Z10 I7.735384 J-12.990975
G03 X291.644834 Y562.261456 Z10 I11.182026 J-11.358241
G03 X289.239220 Y554.932494 Z10 I14.821628 J-8.924244
G03 X290.007070 Y542.477106 Z10 I40.527395 J-3.752928
G01 X290.007070 Y542.477106 Z10 
G00 Z40.000000

(End cutting path id: path61)


(Start cutting path id: path61)
(Change tool to Default tool)

G00 Z40.000000
G00 X346.811150 Y545.075898

G01 Z10 F2500.0(Penetrate)
G03 X354.234929 Y546.329845 Z10 I-63.270999 J397.187859 F2500
G03 X362.542189 Y548.010019 Z10 I-32.570476 J182.414550
G03 X365.627871 Y562.519148 Z10 I-81.093649 J24.829012
G03 X365.731526 Y576.429066 Z10 I-60.406600 J7.405488
G03 X362.717664 Y589.989736 Z10 I-56.730870 J-5.493197
G03 X356.422200 Y602.626561 Z10 I-54.967923 J-19.497577
G03 X347.180951 Y613.292760 Z10 I-51.081513 J-34.920846
G03 X334.614240 Y622.033638 Z10 I-38.501177 J-41.948945
G03 X320.317158 Y627.472387 Z10 I-29.963602 J-57.255599
G03 X303.798649 Y629.536641 Z10 I-16.779495 J-67.148253
G03 X287.280155 Y627.472464 Z10 I0.259640 J-69.204124
G03 X272.983087 Y622.033638 Z10 I15.667824 J-62.696889
G03 X260.428357 Y613.316201 Z10 I26.050564 J-50.916946
G03 X251.175146 Y602.626561 Z10 I41.101742 J-44.928381
G03 X244.879660 Y589.989726 Z10 I48.671253 J-32.133882
G03 X241.865826 Y576.429066 Z10 I53.716979 J-19.053750
G03 X241.974581 Y562.487121 Z10 I60.721359 J-6.497734
G03 X245.055129 Y548.010019 Z10 I84.096780 J10.328449
G03 X253.362370 Y546.329846 Z10 I40.877032 J180.730622
G03 X260.786153 Y545.075898 Z10 I70.695416 J395.937658
G02 X258.555478 Y557.060919 Z10 I78.259933 J20.765988
G02 X258.458822 Y568.423107 Z10 I56.483926 J6.162005
G02 X259.248667 Y574.107062 Z10 I60.905495 J-5.566600
G02 X260.613758 Y579.530849 Z10 I44.682298 J-8.362226
G02 X262.577120 Y584.687812 Z10 I50.354827 J-16.218893
G02 X265.182219 Y589.674519 Z10 I39.337956 J-17.376669
G02 X272.005296 Y598.347809 Z10 I39.752835 J-24.252217
G02 X281.085642 Y605.267239 Z10 I30.144005 J-30.140113
G02 X283.632161 Y606.610310 Z10 I42.068930 J-76.678736
G02 X286.257494 Y607.866057 Z10 I28.936306 J-57.123615
G02 X288.995263 Y608.847709 Z10 I17.325015 J-44.009886
G02 X291.817215 Y609.710361 Z10 I26.997151 J-83.267488
G02 X297.615240 Y610.897806 Z10 I8.932127 J-28.864598
G02 X303.798649 Y611.345072 Z10 I10.142632 J-97.254914
G02 X309.928677 Y610.900139 Z10 I-3.988648 J-97.403747
G02 X315.737016 Y609.710361 Z10 I-3.142922 J-30.115993
G02 X318.590157 Y608.843743 Z10 I-27.316339 J-95.062784
G02 X321.296709 Y607.866057 Z10 I-11.966752 J-37.362995
G02 X323.980221 Y606.597226 Z10 I-21.972607 J-49.943087
G02 X326.468573 Y605.267239 Z10 I-29.009409 J-57.268195
G02 X335.572366 Y598.335650 Z10 I-20.644883 J-36.558680
G02 X342.371992 Y589.674519 Z10 I-33.199101 J-33.063414
G02 X344.939230 Y584.700209 Z10 I-39.777495 J-23.678767
G02 X346.940493 Y579.530849 Z10 I-54.454021 J-24.053354
G02 X348.305558 Y574.107065 Z10 I-43.319766 J-13.786446
G02 X349.095401 Y568.423107 Z10 I-60.116217 J-11.250610
G02 X349.036081 Y557.059351 Z10 I-55.234137 J-5.393708
G02 X346.811150 Y545.075898 Z10 I-80.014365 J8.657747
G01 X346.811150 Y545.075898 Z10 
G00 Z40.000000

(End cutting path id: path61)


(Start cutting path id: path61)
(Change tool to Default tool)

G00 Z40.000000
G00 X393.357808 Y570.099747

G01 Z10 F2500.0(Penetrate)
G03 X394.103743 Y577.945235 Z10 I-63.367653 J9.983092 F2500
G03 X393.918104 Y586.195490 Z10 I-73.908862 J2.464187
G03 X390.611274 Y602.269772 Z10 I-73.914781 J-6.828596
G03 X383.746730 Y617.590569 Z10 I-74.367012 J-24.122194
G03 X368.810325 Y638.376292 Z10 I-106.710963 J-60.921954
G03 X348.750610 Y658.290991 Z10 I-171.494204 J-152.682764
G03 X326.899325 Y676.281262 Z10 I-269.749203 J-305.376296
G02 X303.798649 Y694.632149 Z10 I520.041789 J678.360392
G02 X280.702451 Y676.288761 Z10 I-539.719082 J655.849520
G03 X258.803613 Y658.290991 Z10 I252.943982 J-330.091918
G03 X238.733344 Y638.392322 Z10 I149.100423 J-170.457232
G03 X223.807470 Y617.590569 Z10 I91.363879 J-81.312042
G03 X216.942951 Y602.269774 Z10 I67.502638 J-39.442948
G03 X213.636175 Y586.195490 Z10 I70.606530 J-22.902336
G03 X213.444875 Y577.932100 Z10 I74.700930 J-5.863263
G03 X214.153362 Y570.141665 Z10 I66.684864 J2.137100
G03 X215.936298 Y562.350565 Z10 I62.460619 J10.194098
G03 X218.635626 Y554.968075 Z10 I60.443530 J17.915795
G03 X223.086135 Y553.605162 Z10 I43.959806 J135.600174
G03 X227.255365 Y552.411195 Z10 I311.191040 J1078.776095
G03 X231.525085 Y551.217986 Z10 I44.460162 J150.858135
G03 X235.444119 Y550.231562 Z10 I43.639095 J165.098533
G02 X231.862668 Y565.949933 Z10 I81.982831 J26.947096
G02 X231.694534 Y581.375151 Z10 I64.102286 J8.412236
G02 X232.956922 Y589.014029 Z10 I52.473464 J-4.747927
G02 X235.185524 Y596.548742 Z10 I76.009299 J-18.384935
G02 X236.649823 Y600.193951 Z10 I35.897036 J-12.303301
G02 X238.374830 Y603.758314 Z10 I105.847645 J-49.026375
G02 X240.311993 Y607.274414 Z10 I62.236874 J-31.997149
G02 X242.512304 Y610.632487 Z10 I36.205770 J-21.323228
G02 X253.221229 Y622.668746 Z10 I50.798080 J-34.414058
G02 X267.940535 Y632.596469 Z10 I49.003199 J-56.778800
G02 X284.615485 Y638.821446 Z10 I35.054344 J-68.454437
G02 X303.798649 Y641.147334 Z10 I19.183164 J-77.945306
G02 X323.014337 Y638.821339 Z10 I0.000000 J-80.536053
G02 X339.656789 Y632.596469 Z10 I-18.158444 J-73.906951
G02 X354.326641 Y622.684396 Z10 I-34.537963 J-66.927843
G02 X365.084983 Y610.632487 Z10 I-40.704952 J-47.163731
G02 X367.285303 Y607.274413 Z10 I-34.002223 J-24.679267
G02 X369.222474 Y603.758314 Z10 I-60.309754 J-35.518939
G02 X370.947485 Y600.193955 Z10 I-104.153437 J-52.605803
G02 X372.411811 Y596.548742 Z10 I-34.432690 J-15.948749
G02 X374.640403 Y589.014030 Z10 I-73.777380 J-25.918565
G02 X375.902815 Y581.375151 Z10 I-51.215690 J-12.387734
G02 X375.734653 Y565.949937 Z10 I-64.271063 J-7.012858
G02 X372.153182 Y550.231562 Z10 I-85.563800 J11.228715
G03 X376.081389 Y551.221642 Z10 I-38.753699 J162.045617
G03 X380.298849 Y552.411195 Z10 I-35.403135 J133.589883
G03 X384.468065 Y553.605156 Z10 I-306.911797 J1079.587433
G03 X388.918650 Y554.968075 Z10 I-39.519426 J136.998047
G03 X391.575205 Y562.293515 Z10 I-58.969211 J25.529472
G03 X393.357808 Y570.099747 Z10 I-61.256708 J18.095013
G01 X393.357808 Y570.099747 Z10 
G00 Z40.000000

(End cutting path id: path61)


(Start cutting path id: path61)
(Change tool to Default tool)

G00 Z40.000000
G00 X381.764232 Y542.560937

G01 Z10 F2500.0(Penetrate)
G02 X356.611734 Y536.339459 Z10 I-115.573504 J413.291635 F2500
G02 X339.053370 Y533.129835 Z10 I-59.726441 J277.104028
G02 X350.563217 Y528.103377 Z10 I-45.367133 J-119.575201
G02 X361.378530 Y521.686771 Z10 I-37.518181 J-75.560630
G02 X362.165666 Y522.640706 Z10 I6.779253 J-4.792155
G02 X363.145580 Y523.531076 Z10 I6.950733 J-6.665347
G03 X373.473630 Y532.829498 Z10 I-83.341565 J102.955159
G03 X381.764232 Y542.560937 Z10 I-56.767990 J56.760186
G01 X381.764232 Y542.560937 Z10 
G00 Z40.000000

(End cutting path id: path61)


(Start cutting path id: path61)
(Change tool to Default tool)

G00 Z40.000000
G00 X366.722775 Y502.321579

G01 Z10 F2500.0(Penetrate)
G03 X353.131582 Y513.167363 Z10 I-61.973977 J-63.722872 F2500
G03 X337.803548 Y521.141862 Z10 I-49.141726 J-75.738356
G03 X321.365124 Y525.997724 Z10 I-33.259784 J-82.341267
G03 X303.755554 Y527.680756 Z10 I-17.609570 J-91.282988
G03 X286.140051 Y525.965817 Z10 I0.334021 J-94.759905
G03 X269.707585 Y521.141862 Z10 I17.104873 J-88.666553
G03 X254.379543 Y513.167364 Z10 I33.814005 J-83.713518
G03 X240.788355 Y502.321579 Z10 I48.382070 J-74.567723
G03 X229.589374 Y489.033158 Z10 I61.272970 J-63.001804
G03 X221.437043 Y474.195942 Z10 I70.748352 J-48.531050
G03 X216.438826 Y458.174077 Z10 I76.386924 J-32.620397
G03 X214.713646 Y441.082303 Z10 I83.803579 J-17.091774
G03 X216.471662 Y423.984138 Z10 I87.185938 J0.324907
G03 X221.437043 Y407.968664 Z10 I82.739153 J16.874696
G03 X229.589374 Y393.131450 Z10 I78.900633 J33.693813
G03 X240.788355 Y379.843033 Z10 I72.471909 J49.713366
G03 X254.379543 Y368.997246 Z10 I61.973089 J63.721720
G03 X269.707585 Y361.022747 Z10 I49.142212 J75.739320
G03 X286.146009 Y356.166887 Z10 I33.259942 J82.341843
G03 X303.755554 Y354.483853 Z10 I17.609545 J91.282598
G03 X321.371082 Y356.198788 Z10 I-0.333999 J94.760125
G03 X337.803548 Y361.022747 Z10 I-17.104732 J88.666014
G03 X353.131581 Y368.997247 Z10 I-33.813858 J83.713155
G03 X366.722775 Y379.843033 Z10 I-48.382614 J74.568440
G03 X377.921741 Y393.131445 Z10 I-61.272473 J63.001337
G03 X386.074104 Y407.968664 Z10 I-70.750311 J48.532290
G03 X391.072308 Y423.990529 Z10 I-76.387092 J32.620386
G03 X392.797484 Y441.082303 Z10 I-83.803796 J17.091774
G03 X391.039576 Y458.180467 Z10 I-87.172914 J-0.323029
G03 X386.074104 Y474.195942 Z10 I-82.741906 J-16.875989
G03 X377.900918 Y489.043782 Z10 I-78.380141 J-33.471924
G03 X366.722775 Y502.321579 Z10 I-73.845687 J-50.824112
G01 X366.722775 Y502.321579 Z10 
G00 Z40.000000

(End cutting path id: path61)


(Start cutting path id: path61)
(Change tool to Default tool)

G00 Z40.000000
G00 X388.573859 Y498.842550

G01 Z10 F2500.0(Penetrate)
G02 X387.611646 Y497.876501 Z10 I-9.993482 J8.991585 F2500
G02 X386.677467 Y497.123997 Z10 I-6.885718 J7.592008
G02 X393.299696 Y486.545329 Z10 I-65.129717 J-48.133183
G02 X398.443424 Y475.411510 Z10 I-110.013582 J-57.580413
G02 X401.726899 Y492.469506 Z10 I264.455139 J-42.059661
G02 X408.140636 Y516.950261 Z10 I367.065712 J-83.087364
G03 X398.050208 Y508.836995 Z10 I45.370116 J-66.757929
G03 X388.573859 Y498.842550 Z10 I86.862351 J-91.849321
G01 X388.573859 Y498.842550 Z10 
G00 Z40.000000

(End cutting path id: path61)


(Start cutting path id: path61)
(Change tool to Default tool)

G00 Z40.000000
G00 X408.873313 Y468.118125

G01 Z10 F2500.0(Penetrate)
G03 X408.563109 Y464.541419 Z10 I83.775604 J-9.067579 F2500
G03 X408.356141 Y461.160069 Z10 I414.701703 J-27.080366
G02 X423.774662 Y462.461320 Z10 I12.900521 J-60.860624
G02 X435.680699 Y459.609176 Z10 I-1.280992 J-31.623847
G02 X444.575101 Y452.267585 Z10 I-9.320913 J-20.350985
G02 X448.222457 Y441.082303 Z10 I-15.941943 J-11.385750
G02 X444.575103 Y429.897028 Z10 I-19.589288 J0.200468
G02 X435.680699 Y422.555433 Z10 I-18.215332 J13.009407
G02 X423.767171 Y419.686555 Z10 I-13.104188 J28.246517
G02 X408.356141 Y421.004543 Z10 I-2.399382 J62.702794
G03 X408.565143 Y417.560740 Z10 I374.946300 J21.027008
G03 X408.873313 Y414.046489 Z10 I79.080581 J5.164060
G03 X409.218789 Y410.505844 Z10 I42.055617 J2.316366
G02 X409.606019 Y406.836936 Z10 I-53.181932 J-7.467901
G03 X420.289080 Y405.467135 Z10 I15.566063 J79.056076
G03 X430.121006 Y405.705203 Z10 I3.516439 J57.917798
G03 X435.054265 Y406.414642 Z10 I-6.220725 J60.764333
G03 X439.688876 Y407.549505 Z10 I-7.714256 J41.534830
G03 X444.127683 Y409.152262 Z10 I-13.836964 J45.269203
G03 X448.351743 Y411.154282 Z10 I-19.531220 J46.666100
G03 X461.404859 Y423.253365 Z10 I-17.589947 J32.067672
G03 X466.797985 Y441.082303 Z10 I-27.867471 J18.159871
G03 X461.610648 Y458.879566 Z10 I-32.030619 J0.318695
G03 X448.394839 Y471.052246 Z10 I-30.514746 J-19.869182
G03 X444.158406 Y473.048796 Z10 I-22.724338 J-42.725373
G03 X439.645780 Y474.657022 Z10 I-18.438225 J-44.601748
G03 X434.936619 Y475.795282 Z10 I-12.591582 J-41.782983
G03 X429.991664 Y476.501325 Z10 I-11.337075 J-61.732475
G03 X420.083788 Y476.705956 Z10 I-6.208588 J-60.645780
G03 X409.519800 Y475.369591 Z10 I4.965057 J-81.671338
G02 X409.175823 Y471.679583 Z10 I-46.480606 J2.471813
G03 X408.873313 Y468.118125 Z10 I36.892638 J-4.927231
G01 X408.873313 Y468.118125 Z10 
G00 Z40.000000

(End cutting path id: path61)


(Start cutting path id: path61)
(Change tool to Default tool)

G00 Z40.000000
G00 X410.683430 Y482.956388

G01 Z10 F2500.0(Penetrate)
G02 X422.997459 Y485.125604 Z10 I21.293531 J-84.841145 F2500
G02 X434.689422 Y485.219852 Z10 I6.341713 J-61.450486
G02 X440.540163 Y484.450679 Z10 I-5.714829 J-66.106492
G02 X446.110588 Y483.124053 Z10 I-8.520877 J-48.136952
G02 X451.425559 Y481.209530 Z10 I-16.463658 J-54.040092
G02 X456.540449 Y478.680958 Z10 I-17.371187 J-41.576677
G02 X465.514561 Y471.993174 Z10 I-23.945731 J-41.496888
G02 X472.573183 Y463.213950 Z10 I-28.523803 J-30.160777
G02 X473.955351 Y460.735068 Z10 I-72.370381 J-41.976823
G02 X475.245320 Y458.184030 Z10 I-53.599148 J-28.704851
G02 X476.255434 Y455.519102 Z10 I-41.010936 J-17.068687
G02 X477.141656 Y452.776870 Z10 I-77.262408 J-26.483609
G02 X478.363044 Y447.130523 Z10 I-26.660168 J-8.722266
G02 X478.822487 Y441.124222 Z10 I-89.297718 J-9.851408
G02 X478.365441 Y435.169867 Z10 I-89.479183 J3.873547
G02 X477.141656 Y429.513489 Z10 I-27.941415 J3.084687
G02 X476.251422 Y426.741196 Z10 I-88.281549 J26.819735
G02 X475.245320 Y424.106329 Z10 I-34.921283 J11.824877
G02 X473.942214 Y421.499320 Z10 I-46.941487 J21.834387
G02 X472.573183 Y419.076409 Z10 I-54.194441 J29.023549
G02 X465.502571 Y410.274436 Z10 I-35.103362 J20.957586
G02 X456.540449 Y403.609401 Z10 I-33.061444 J35.098020
G02 X451.437194 Y401.117215 Z10 I-23.817591 J42.300276
G02 X446.110588 Y399.166306 Z10 I-24.484118 J58.602343
G02 X440.540163 Y397.839680 Z10 I-14.091303 J46.810326
G02 X434.689422 Y397.070507 Z10 I-11.565570 J65.337319
G02 X422.997459 Y397.164755 Z10 I-5.350250 J61.544735
G02 X410.683430 Y399.333971 Z10 I8.979502 J87.010361
G03 X411.972307 Y392.116590 Z10 I366.697012 J61.760837
G03 X413.700386 Y384.034634 Z10 I168.698481 J31.845270
G03 X428.604284 Y381.034000 Z10 I25.439057 J87.840141
G03 X442.921280 Y380.932851 Z10 I7.623253 J65.732483
G03 X456.919157 Y383.880075 Z10 I-5.627115 J61.441214
G03 X469.857980 Y389.986706 Z10 I-19.449240 J57.970146
G03 X480.894327 Y399.043809 Z10 I-34.309345 J53.059559
G03 X489.812643 Y411.196200 Z10 I-39.528436 J38.357521
G03 X495.414923 Y425.148926 Z10 I-53.380402 J29.534301
G03 X497.527357 Y441.166137 Z10 I-61.592733 J16.271078
G03 X495.414998 Y457.183349 Z10 I-63.698317 J-0.252676
G03 X489.812643 Y471.136077 Z10 I-58.984818 J-15.582713
G03 X480.918559 Y483.276206 Z10 I-48.656416 J-26.318545
G03 X469.857980 Y492.345571 Z10 I-44.698279 J-43.232790
G03 X456.919157 Y498.452200 Z10 I-32.388023 J-51.863449
G03 X442.921280 Y501.399427 Z10 I-19.625049 J-58.494214
G03 X428.571378 Y501.293273 Z10 I-6.686644 J-66.062709
G03 X413.700386 Y498.297644 Z10 I10.544402 J-90.754151
G03 X411.964179 Y490.103719 Z10 I181.494000 J-42.737581
G03 X410.683430 Y482.956388 Z10 I395.184930 J-74.502630
G01 X410.683430 Y482.956388 Z10 
G00 Z40.000000

(End cutting path id: path61)


(Start cutting path id: path61)
(Change tool to Default tool)

G00 Z40.000000
G00 X527.049918 Y484.800693

G01 Z10 F2500.0(Penetrate)
G03 X506.653602 Y504.252909 Z10 I-164.978148 J-152.566019 F2500
G03 X485.201104 Y518.836484 Z10 I-82.030023 J-97.596355
G03 X469.502194 Y525.497901 Z10 I-39.882058 J-72.160283
G03 X452.920159 Y528.728658 Z10 I-23.579828 J-76.855262
G03 X444.421866 Y528.914809 Z10 I-6.030434 J-81.227592
G03 X436.413376 Y528.225668 Z10 I2.193764 J-72.371444
G03 X428.388362 Y526.487869 Z10 I10.430358 J-67.564888
G03 X420.811680 Y523.866404 Z10 I18.120553 J-64.632846
G03 X419.409917 Y519.536773 Z10 I125.946530 J-43.168233
G03 X418.182639 Y515.483205 Z10 I999.120714 J-304.711201
G03 X416.955345 Y511.329150 Z10 I139.995039 J-43.619156
G03 X415.941512 Y507.519164 Z10 I152.743010 J-42.684596
G02 X432.084841 Y511.001730 Z10 I27.594927 J-88.758228
G02 X447.963829 Y511.165854 Z10 I8.661444 J-69.766547
G02 X455.859752 Y509.934170 Z10 I-4.915953 J-57.439493
G02 X463.565581 Y507.770661 Z10 I-17.935712 J-78.686919
G02 X467.318436 Y506.344354 Z10 I-12.460312 J-38.435548
G02 X470.978571 Y504.668875 Z10 I-49.274536 J-112.477296
G02 X474.600501 Y502.781284 Z10 I-32.110863 J-66.033362
G02 X478.046742 Y500.644939 Z10 I-21.141537 J-37.952259
G02 X490.498497 Y490.146030 Z10 I-33.729705 J-52.636958
G02 X500.630475 Y475.914500 Z10 I-53.476799 J-48.794646
G02 X507.042209 Y459.643231 Z10 I-63.794614 J-34.537341
G02 X509.422601 Y441.040390 Z10 I-71.500731 J-18.602841
G02 X507.042117 Y422.406313 Z10 I-74.122655 J0.000000
G02 X500.630475 Y406.166280 Z10 I-69.488625 J18.048749
G02 X490.513900 Y391.982076 Z10 I-63.826030 J34.822710
G02 X478.046742 Y381.435841 Z10 I-46.874986 J42.770839
G02 X474.600502 Y379.299499 Z10 I-24.587963 J35.816250
G02 X470.978571 Y377.411905 Z10 I-35.733418 J64.146895
G02 X467.318436 Y375.736428 Z10 I-52.936579 J110.806077
G02 X463.565581 Y374.310122 Z10 I-16.212965 J37.008748
G02 X455.828804 Y372.145032 Z10 I-26.428188 J79.533074
G02 X447.963829 Y370.914924 Z10 I-12.733760 J55.657908
G02 X432.084841 Y371.079050 Z10 I-7.217539 J69.930443
G02 X415.941512 Y374.561619 Z10 I11.451673 J92.241037
G03 X416.959068 Y370.742848 Z10 I150.026832 J37.931420
G03 X418.182639 Y366.639492 Z10 I124.098251 J34.770491
G03 X419.409917 Y362.585921 Z10 I1000.384629 J300.668644
G03 X420.811680 Y358.256292 Z10 I127.346584 J38.838060
G03 X428.357871 Y355.640892 Z10 I25.827596 J62.325964
G03 X436.413376 Y353.897028 Z10 I18.254031 J64.844122
G03 X444.478267 Y353.171438 Z10 I10.258501 J68.839450
G03 X452.963283 Y353.352122 Z10 I2.533532 J80.344850
G03 X469.545295 Y356.582871 Z10 I-6.997759 J80.085885
G03 X485.244227 Y363.244299 Z10 I-24.183089 J78.821570
G03 X506.697373 Y377.847104 Z10 I-60.251696 J111.576379
G03 X527.093042 Y397.322003 Z10 I-146.259943 J173.592521
G03 X545.599412 Y418.584683 Z10 I-294.174650 J274.725419
G02 X564.459603 Y441.040390 Z10 I654.122544 J-530.239065
G02 X545.547536 Y463.549968 Z10 I633.676787 J551.601252
G03 X527.049918 Y484.800693 Z10 I-312.890932 J-253.678845
G01 X527.049918 Y484.800693 Z10 
G00 Z40.000000

(End cutting path id: path61)


(Footer)
M5
G00 X0.0000 Y0.0000
M2
(Using default footer. To add your own footer create file "footer" in the output dir.)
(end)
%
